beq/tb/beq_cpu/dump.vcd
$version Generated by VerilatedVcd $end
$timescale 1ps $end
 $scope module $rootio $end
  $var wire 1 # clk $end
  $var wire 1 $ rst_n $end
 $upscope $end
 $scope module cpu $end
  $var wire 1 % clk $end
  $var wire 1 & rst_n $end
  $var wire 32 ' pc [31:0] $end
  $var wire 32 ( pc_next [31:0] $end
  $var wire 32 ) instruction [31:0] $end
  $var wire 7 * op [6:0] $end
  $var wire 3 + f3 [2:0] $end
  $var wire 1 , alu_zero $end
  $var wire 3 - alu_control [2:0] $end
  $var wire 2 . imm_source [1:0] $end
  $var wire 1 / mem_write $end
  $var wire 1 0 reg_write $end
  $var wire 1 1 alu_source $end
  $var wire 1 2 write_back_source $end
  $var wire 1 3 pc_source $end
  $var wire 5 4 source_reg1 [4:0] $end
  $var wire 5 5 source_reg2 [4:0] $end
  $var wire 5 6 dest_reg [4:0] $end
  $var wire 32 7 read_reg1 [31:0] $end
  $var wire 32 8 read_reg2 [31:0] $end
  $var wire 32 9 write_back_data [31:0] $end
  $var wire 25 : raw_imm [24:0] $end
  $var wire 32 ; immediate [31:0] $end
  $var wire 32 < alu_result [31:0] $end
  $var wire 32 = alu_src2 [31:0] $end
  $var wire 32 > mem_read [31:0] $end
  $scope module alu_inst $end
   $var wire 3 ? alu_control [2:0] $end
   $var wire 32 @ src1 [31:0] $end
   $var wire 32 A src2 [31:0] $end
   $var wire 32 B alu_result [31:0] $end
   $var wire 1 C zero $end
  $upscope $end
  $scope module control_unit $end
   $var wire 7 D op [6:0] $end
   $var wire 3 E func3 [2:0] $end
   $var wire 7 F func7 [6:0] $end
   $var wire 1 G alu_zero $end
   $var wire 3 H alu_control [2:0] $end
   $var wire 2 I imm_source [1:0] $end
   $var wire 1 J mem_write $end
   $var wire 1 K reg_write $end
   $var wire 1 L alu_source $end
   $var wire 1 M write_back_source $end
   $var wire 1 N pc_source $end
   $var wire 2 O alu_op [1:0] $end
   $var wire 1 P branch $end
   $var wire 1 Q jump $end
   $var wire 1 R assert_branch $end
  $upscope $end
  $scope module data_memory $end
   $var wire 32 1! WORDS [31:0] $end
   $var wire 144 2! mem_init [143:0] $end
   $var wire 1 S clk $end
   $var wire 32 T address [31:0] $end
   $var wire 32 U write_data [31:0] $end
   $var wire 1 V write_enable $end
   $var wire 1 W rst_n $end
   $var wire 32 X read_data [31:0] $end
   $scope module unnamedblk1 $end
    $var wire 32 Y i [31:0] $end
   $upscope $end
  $upscope $end
  $scope module instruction_memory $end
   $var wire 32 1! WORDS [31:0] $end
   $var wire 144 7! mem_init [143:0] $end
   $var wire 1 Z clk $end
   $var wire 32 [ address [31:0] $end
   $var wire 32 \ write_data [31:0] $end
   $var wire 1 ] write_enable $end
   $var wire 1 ^ rst_n $end
   $var wire 32 _ read_data [31:0] $end
   $scope module unnamedblk1 $end
    $var wire 32 ` i [31:0] $end
   $upscope $end
  $upscope $end
  $scope module regfile $end
   $var wire 1 a clk $end
   $var wire 1 b rst_n $end
   $var wire 5 c address1 [4:0] $end
   $var wire 5 d address2 [4:0] $end
   $var wire 32 e read_data1 [31:0] $end
   $var wire 32 f read_data2 [31:0] $end
   $var wire 1 g write_enable $end
   $var wire 32 h write_data [31:0] $end
   $var wire 5 i address3 [4:0] $end
   $var wire 32 j registers[0] [31:0] $end
   $var wire 32 k registers[1] [31:0] $end
   $var wire 32 l registers[2] [31:0] $end
   $var wire 32 m registers[3] [31:0] $end
   $var wire 32 n registers[4] [31:0] $end
   $var wire 32 o registers[5] [31:0] $end
   $var wire 32 p registers[6] [31:0] $end
   $var wire 32 q registers[7] [31:0] $end
   $var wire 32 r registers[8] [31:0] $end
   $var wire 32 s registers[9] [31:0] $end
   $var wire 32 t registers[10] [31:0] $end
   $var wire 32 u registers[11] [31:0] $end
   $var wire 32 v registers[12] [31:0] $end
   $var wire 32 w registers[13] [31:0] $end
   $var wire 32 x registers[14] [31:0] $end
   $var wire 32 y registers[15] [31:0] $end
   $var wire 32 z registers[16] [31:0] $end
   $var wire 32 { registers[17] [31:0] $end
   $var wire 32 | registers[18] [31:0] $end
   $var wire 32 } registers[19] [31:0] $end
   $var wire 32 ~ registers[20] [31:0] $end
   $var wire 32 !! registers[21] [31:0] $end
   $var wire 32 "! registers[22] [31:0] $end
   $var wire 32 #! registers[23] [31:0] $end
   $var wire 32 $! registers[24] [31:0] $end
   $var wire 32 %! registers[25] [31:0] $end
   $var wire 32 &! registers[26] [31:0] $end
   $var wire 32 '! registers[27] [31:0] $end
   $var wire 32 (! registers[28] [31:0] $end
   $var wire 32 )! registers[29] [31:0] $end
   $var wire 32 *! registers[30] [31:0] $end
   $var wire 32 +! registers[31] [31:0] $end
   $scope module unnamedblk1 $end
    $var wire 32 ,! i [31:0] $end
   $upscope $end
  $upscope $end
  $scope module sign_extender $end
   $var wire 25 -! raw_src [24:0] $end
   $var wire 2 .! imm_source [1:0] $end
   $var wire 32 /! immediate [31:0] $end
   $var wire 12 0! gathered_imm [11:0] $end
  $upscope $end
 $upscope $end
$enddefinitions $end


#0
1#
0$
1%
0&
b00000000000000000000000000000000 '
b00000000000000000000000000000100 (
b00000000100000000010100100000011 )
b0000011 *
b010 +
0,
b000 -
b00 .
0/
10
11
12
03
b00000 4
b01000 5
b10010 6
b00000000000000000000000000000000 7
b00000000000000000000000000000000 8
b11011110101011011011111011101111 9
b0000000010000000001010010 :
b00000000000000000000000000001000 ;
b00000000000000000000000000001000 <
b00000000000000000000000000001000 =
b11011110101011011011111011101111 >
b000 ?
b00000000000000000000000000000000 @
b00000000000000000000000000001000 A
b00000000000000000000000000001000 B
0C
b0000011 D
b010 E
b0000000 F
0G
b000 H
b00 I
0J
1K
1L
1M
0N
b00 O
0P
0Q
0R
1S
b00000000000000000000000000000010 T
b00000000000000000000000000000000 U
0V
1W
b11011110101011011011111011101111 X
b00000000000000000000000000000000 Y
1Z
b00000000000000000000000000000000 [
b00000000000000000000000000000000 \
0]
1^
b00000000100000000010100100000011 _
b00000000000000000000000000000000 `
1a
0b
b00000 c
b01000 d
b00000000000000000000000000000000 e
b00000000000000000000000000000000 f
1g
b11011110101011011011111011101111 h
b10010 i
b00000000000000000000000000000000 j
b00000000000000000000000000000000 k
b00000000000000000000000000000000 l
b00000000000000000000000000000000 m
b00000000000000000000000000000000 n
b00000000000000000000000000000000 o
b00000000000000000000000000000000 p
b00000000000000000000000000000000 q
b00000000000000000000000000000000 r
b00000000000000000000000000000000 s
b00000000000000000000000000000000 t
b00000000000000000000000000000000 u
b00000000000000000000000000000000 v
b00000000000000000000000000000000 w
b00000000000000000000000000000000 x
b00000000000000000000000000000000 y
b00000000000000000000000000000000 z
b00000000000000000000000000000000 {
b00000000000000000000000000000000 |
b00000000000000000000000000000000 }
b00000000000000000000000000000000 ~
b00000000000000000000000000000000 !!
b00000000000000000000000000000000 "!
b00000000000000000000000000000000 #!
b00000000000000000000000000000000 $!
b00000000000000000000000000000000 %!
b00000000000000000000000000000000 &!
b00000000000000000000000000000000 '!
b00000000000000000000000000000000 (!
b00000000000000000000000000000000 )!
b00000000000000000000000000000000 *!
b00000000000000000000000000000000 +!
b00000000000000000000000000100000 ,!
b0000000010000000001010010 -!
b00 .!
b00000000000000000000000000001000 /!
b000000001000 0!
b00000000000000000000000001000000 1!
b001011100010111101110100011001010111001101110100010111110110010001101101011001010110110101101111011100100111100100101110011010000110010101111000 2!
b001011100010111101110100011001010111001101110100010111110110100101101101011001010110110101101111011100100111100100101110011010000110010101111000 7!
#500
0#
0%
0S
0Z
0a
#1000
1#
1$
1%
1&
1S
1Z
1a
1b
#1500
0#
0%
0S
0Z
0a
#2000
1#
1%
b00000000000000000000000000000100 '
b00000000000000000000000000001000 (
b00000001001000000010011000100011 )
b0100011 *
b01 .
1/
00
02
b10010 5
b01100 6
b11011110101011011011111011101111 8
b00000000000000000000000000001100 9
b0000000100100000001001100 :
b00000000000000000000000000001100 ;
b00000000000000000000000000001100 <
b00000000000000000000000000001100 =
b11110010111100101111001011110010 >
b00000000000000000000000000001100 A
b00000000000000000000000000001100 B
b0100011 D
b01 I
1J
0K
0M
1S
b00000000000000000000000000000011 T
b11011110101011011011111011101111 U
1V
b11110010111100101111001011110010 X
1Z
b00000000000000000000000000000001 [
b00000001001000000010011000100011 _
1a
b10010 d
b11011110101011011011111011101111 f
0g
b00000000000000000000000000001100 h
b01100 i
b11011110101011011011111011101111 |
b0000000100100000001001100 -!
b01 .!
b00000000000000000000000000001100 /!
b000000001100 0!
#2500
0#
0%
0S
0Z
0a
#3000
1#
1%
b00000000000000000000000000001000 '
b00000000000000000000000000001100 (
b00000001000000000010100110000011 )
b0000011 *
b00 .
0/
10
12
b10000 5
b10011 6
b00000000000000000000000000000000 8
b00000000000000000000101010101010 9
b0000000100000000001010011 :
b00000000000000000000000000010000 ;
b00000000000000000000000000010000 <
b00000000000000000000000000010000 =
b00000000000000000000101010101010 >
b00000000000000000000000000010000 A
b00000000000000000000000000010000 B
b0000011 D
b00 I
0J
1K
1M
1S
b00000000000000000000000000000100 T
b00000000000000000000000000000000 U
0V
b00000000000000000000101010101010 X
1Z
b00000000000000000000000000000010 [
b00000001000000000010100110000011 _
1a
b10000 d
b00000000000000000000000000000000 f
1g
b00000000000000000000101010101010 h
b10011 i
b0000000100000000001010011 -!
b00 .!
b00000000000000000000000000010000 /!
b000000010000 0!
#3500
0#
0%
0S
0Z
0a
#4000
1#
1%
b00000000000000000000000000001100 '
b00000000000000000000000000010000 (
b00000001001110010000101000110011 )
b0110011 *
b000 +
01
02
b10010 4
b10011 5
b10100 6
b11011110101011011011111011101111 7
b00000000000000000000101010101010 8
b11011110101011011100100110011001 9
b0000000100111001000010100 :
b00000000000000000000000000010011 ;
b11011110101011011100100110011001 <
b00000000000000000000101010101010 =
b00000000000000000000000000000000 >
b11011110101011011011111011101111 @
b00000000000000000000101010101010 A
b11011110101011011100100110011001 B
b0110011 D
b000 E
0L
0M
b10 O
1S
b00110111101010110111001001100110 T
b00000000000000000000101010101010 U
b00000000000000000000000000000000 X
1Z
b00000000000000000000000000000011 [
b00000001001110010000101000110011 _
1a
b10010 c
b10011 d
b11011110101011011011111011101111 e
b00000000000000000000101010101010 f
b11011110101011011100100110011001 h
b10100 i
b00000000000000000000101010101010 }
b0000000100111001000010100 -!
b00000000000000000000000000010011 /!
b000000010011 0!
#4500
0#
0%
0S
0Z
0a
#5000
1#
1%
b00000000000000000000000000010000 '
b00000000000000000000000000010100 (
b00000001010010010111101010110011 )
b111 +
b010 -
b10100 5
b10101 6
b11011110101011011100100110011001 8
b11011110101011011000100010001001 9
b0000000101001001011110101 :
b00000000000000000000000000010100 ;
b11011110101011011000100010001001 <
b11011110101011011100100110011001 =
b010 ?
b11011110101011011100100110011001 A
b11011110101011011000100010001001 B
b111 E
b010 H
1S
b00110111101010110110001000100010 T
b11011110101011011100100110011001 U
1Z
b00000000000000000000000000000100 [
b00000001010010010111101010110011 _
1a
b10100 d
b11011110101011011100100110011001 f
b11011110101011011000100010001001 h
b10101 i
b11011110101011011100100110011001 ~
b0000000101001001011110101 -!
b00000000000000000000000000010100 /!
b000000010100 0!
#5500
0#
0%
0S
0Z
0a
#6000
1#
1%
b00000000000000000000000000010100 '
b00000000000000000000000000011000 (
b00000001010000000010001010000011 )
b0000011 *
b010 +
b000 -
11
12
b00000 4
b00101 6
b00000000000000000000000000000000 7
b00010010010111110101010100101101 9
b0000000101000000001000101 :
b00000000000000000000000000010100 <
b00000000000000000000000000010100 =
b00010010010111110101010100101101 >
b000 ?
b00000000000000000000000000000000 @
b00000000000000000000000000010100 A
b00000000000000000000000000010100 B
b0000011 D
b010 E
b000 H
1L
1M
b00 O
1S
b00000000000000000000000000000101 T
b00010010010111110101010100101101 X
1Z
b00000000000000000000000000000101 [
b00000001010000000010001010000011 _
1a
b00000 c
b00000000000000000000000000000000 e
b00010010010111110101010100101101 h
b00101 i
b11011110101011011000100010001001 !!
b0000000101000000001000101 -!
#6500
0#
0%
0S
0Z
0a
#7000
1#
1%
b00000000000000000000000000011000 '
b00000000000000000000000000011100 (
b00000001100000000010001100000011 )
b11000 5
b00110 6
b00000000000000000000000000000000 8
b01111111010011111101010001101010 9
b0000000110000000001000110 :
b00000000000000000000000000011000 ;
b00000000000000000000000000011000 <
b00000000000000000000000000011000 =
b01111111010011111101010001101010 >
b00000000000000000000000000011000 A
b00000000000000000000000000011000 B
1S
b00000000000000000000000000000110 T
b00000000000000000000000000000000 U
b01111111010011111101010001101010 X
1Z
b00000000000000000000000000000110 [
b00000001100000000010001100000011 _
1a
b11000 d
b00000000000000000000000000000000 f
b01111111010011111101010001101010 h
b00110 i
b00010010010111110101010100101101 o
b0000000110000000001000110 -!
b00000000000000000000000000011000 /!
b000000011000 0!
#7500
0#
0%
0S
0Z
0a
#8000
1#
1%
b00000000000000000000000000011100 '
b00000000000000000000000000100000 (
b00000000011000101110001110110011 )
b0110011 *
b110 +
b011 -
01
02
b00101 4
b00110 5
b00111 6
b00010010010111110101010100101101 7
b01111111010011111101010001101010 8
b01111111010111111101010101101111 9
b0000000001100010111000111 :
b00000000000000000000000000000110 ;
b01111111010111111101010101101111 <
b01111111010011111101010001101010 =
b00000000000000000000000000000000 >
b011 ?
b00010010010111110101010100101101 @
b01111111010011111101010001101010 A
b01111111010111111101010101101111 B
b0110011 D
b110 E
b011 H
0L
0M
b10 O
1S
b00011111110101111111010101011011 T
b01111111010011111101010001101010 U
b00000000000000000000000000000000 X
1Z
b00000000000000000000000000000111 [
b00000000011000101110001110110011 _
1a
b00101 c
b00110 d
b00010010010111110101010100101101 e
b01111111010011111101010001101010 f
b01111111010111111101010101101111 h
b00111 i
b01111111010011111101010001101010 p
b0000000001100010111000111 -!
b00000000000000000000000000000110 /!
b000000000110 0!
#8500
0#
0%
0S
0Z
0a
#9000
1#
1%
b00000000000000000000000000100000 '
b00000000000000000000000000100100 (
b00000000011100110000011001100011 )
b1100011 *
b000 +
b001 -
b10 .
00
b00110 4
b00111 5
b01100 6
b01111111010011111101010001101010 7
b01111111010111111101010101101111 8
b11111111111011111111111011111011 9
b0000000001110011000001100 :
b00000000000000000000000000001100 ;
b11111111111011111111111011111011 <
b01111111010111111101010101101111 =
b001 ?
b01111111010011111101010001101010 @
b01111111010111111101010101101111 A
b11111111111011111111111011111011 B
b1100011 D
b000 E
b001 H
b10 I
0K
b01 O
1P
1S
b00111111111110111111111110111110 T
b01111111010111111101010101101111 U
1Z
b00000000000000000000000000001000 [
b00000000011100110000011001100011 _
1a
b00110 c
b00111 d
b01111111010011111101010001101010 e
b01111111010111111101010101101111 f
0g
b11111111111011111111111011111011 h
b01100 i
b01111111010111111101010101101111 q
b0000000001110011000001100 -!
b10 .!
b00000000000000000000000000001100 /!
b000000001100 0!
#9500
0#
0%
0S
0Z
0a
#10000
1#
1%
b00000000000000000000000000100100 '
b00000000000000000000000000101000 (
b00000000100000000010101100000011 )
b0000011 *
b010 +
b000 -
b00 .
10
11
12
b00000 4
b01000 5
b10110 6
b00000000000000000000000000000000 7
b00000000000000000000000000000000 8
b11011110101011011011111011101111 9
b0000000010000000001010110 :
b00000000000000000000000000001000 ;
b00000000000000000000000000001000 <
b00000000000000000000000000001000 =
b11011110101011011011111011101111 >
b000 ?
b00000000000000000000000000000000 @
b00000000000000000000000000001000 A
b00000000000000000000000000001000 B
b0000011 D
b010 E
b000 H
b00 I
1K
1L
1M
b00 O
0P
1S
b00000000000000000000000000000010 T
b00000000000000000000000000000000 U
b11011110101011011011111011101111 X
1Z
b00000000000000000000000000001001 [
b00000000100000000010101100000011 _
1a
b00000 c
b01000 d
b00000000000000000000000000000000 e
b00000000000000000000000000000000 f
1g
b11011110101011011011111011101111 h
b10110 i
b0000000010000000001010110 -!
b00 .!
b00000000000000000000000000001000 /!
b000000001000 0!
#10500
0#
0%
0S
0Z
0a
#11000
1#
1%
b00000000000000000000000000101000 '
b00000000000000000000000000111000 (
b00000001011010010000100001100011 )
b1100011 *
b000 +
1,
b001 -
b10 .
00
01
02
13
b10010 4
b10110 5
b10000 6
b11011110101011011011111011101111 7
b11011110101011011011111011101111 8
b00000000000000000000000000000000 9
b0000000101101001000010000 :
b00000000000000000000000000010000 ;
b00000000000000000000000000000000 <
b11011110101011011011111011101111 =
b10101110101011101010111010101110 >
b001 ?
b11011110101011011011111011101111 @
b11011110101011011011111011101111 A
b00000000000000000000000000000000 B
1C
b1100011 D
b000 E
1G
b001 H
b10 I
0K
0L
0M
1N
b01 O
1P
1R
1S
b00000000000000000000000000000000 T
b11011110101011011011111011101111 U
b10101110101011101010111010101110 X
1Z
b00000000000000000000000000001010 [
b00000001011010010000100001100011 _
1a
b10010 c
b10110 d
b11011110101011011011111011101111 e
b11011110101011011011111011101111 f
0g
b00000000000000000000000000000000 h
b10000 i
b11011110101011011011111011101111 "!
b0000000101101001000010000 -!
b10 .!
b00000000000000000000000000010000 /!
b000000010000 0!
#11500
0#
0%
0S
0Z
0a
#12000
1#
1%
b00000000000000000000000000111000 '
b00000000000000000000000000111100 (
b00000000000000000010101100000011 )
b0000011 *
b010 +
b000 -
b00 .
10
11
12
03
b00000 4
b00000 5
b10110 6
b00000000000000000000000000000000 7
b00000000000000000000000000000000 8
b10101110101011101010111010101110 9
b0000000000000000001010110 :
b00000000000000000000000000000000 ;
b00000000000000000000000000000000 =
b000 ?
b00000000000000000000000000000000 @
b00000000000000000000000000000000 A
b0000011 D
b010 E
b000 H
b00 I
1K
1L
1M
0N
b00 O
0P
0R
1S
b00000000000000000000000000000000 U
1Z
b00000000000000000000000000001110 [
b00000000000000000010101100000011 _
1a
b00000 c
b00000 d
b00000000000000000000000000000000 e
b00000000000000000000000000000000 f
1g
b10101110101011101010111010101110 h
b10110 i
b0000000000000000001010110 -!
b00 .!
b00000000000000000000000000000000 /!
b000000000000 0!
#12500
0#
0%
0S
0Z
0a
#13000
1#
1%
b00000000000000000000000000111100 '
b00000000000000000000000000110100 (
b11111111011010110000110011100011 )
b1100011 *
b000 +
b001 -
b10 .
00
01
02
13
b10110 4
b10110 5
b11001 6
b10101110101011101010111010101110 7
b10101110101011101010111010101110 8
b00000000000000000000000000000000 9
b1111111101101011000011001 :
b11111111111111111111111111111000 ;
b10101110101011101010111010101110 =
b001 ?
b10101110101011101010111010101110 @
b10101110101011101010111010101110 A
b1100011 D
b000 E
b001 H
b10 I
0K
0L
0M
1N
b01 O
1P
1R
1S
b10101110101011101010111010101110 U
1Z
b00000000000000000000000000001111 [
b11111111011010110000110011100011 _
1a
b10110 c
b10110 d
b10101110101011101010111010101110 e
b10101110101011101010111010101110 f
0g
b00000000000000000000000000000000 h
b11001 i
b10101110101011101010111010101110 "!
b1111111101101011000011001 -!
b10 .!
b11111111111111111111111111111000 /!
b111111111000 0!
#13500
0#
0%
0S
0Z
0a
#14000
1#
1%
b00000000000000000000000000110100 '
b00000000000000000000000001000000 (
b00000000000000000000011001100011 )
b00000 4
b00000 5
b01100 6
b00000000000000000000000000000000 7
b00000000000000000000000000000000 8
b0000000000000000000001100 :
b00000000000000000000000000001100 ;
b00000000000000000000000000000000 =
b00000000000000000000000000000000 @
b00000000000000000000000000000000 A
1S
b00000000000000000000000000000000 U
1Z
b00000000000000000000000000001101 [
b00000000000000000000011001100011 _
1a
b00000 c
b00000 d
b00000000000000000000000000000000 e
b00000000000000000000000000000000 f
b01100 i
b0000000000000000000001100 -!
b00000000000000000000000000001100 /!
b000000001100 0!
#14500
0#
0%
0S
0Z
0a
#15000
1#
1%
b00000000000000000000000001000000 '
b00000000000000000000000001000100 (
b00000000000000000000000000010011 )
b0010011 *
b000 -
b00 .
03
b00000 6
b0000000000000000000000000 :
b00000000000000000000000000000000 ;
b000 ?
b0010011 D
b000 H
b00 I
0N
b00 O
0P
0R
1S
1Z
b00000000000000000000000000010000 [
b00000000000000000000000000010011 _
1a
b00000 i
b0000000000000000000000000 -!
b00 .!
b00000000000000000000000000000000 /!
b000000000000 0!
#15500
0#
0%
0S
0Z
0a
#16000
1#
1%
b00000000000000000000000001000100 '
b00000000000000000000000001001000 (
1S
1Z
b00000000000000000000000000010001 [
1a
