Jtype/tb/jtype_cpu/dump.vcd
$version Generated by VerilatedVcd $end
$timescale 1ps $end
 $scope module $rootio $end
  $var wire 1 # clk $end
  $var wire 1 $ rst_n $end
 $upscope $end
 $scope module cpu $end
  $var wire 1 % clk $end
  $var wire 1 & rst_n $end
  $var wire 32 ' pc [31:0] $end
  $var wire 32 ( pc_next [31:0] $end
  $var wire 32 ) pc_target [31:0] $end
  $var wire 32 * pc_plus_four [31:0] $end
  $var wire 32 + instruction [31:0] $end
  $var wire 7 , op [6:0] $end
  $var wire 3 - f3 [2:0] $end
  $var wire 1 . alu_zero $end
  $var wire 3 / alu_control [2:0] $end
  $var wire 2 0 imm_source [1:0] $end
  $var wire 1 1 mem_write $end
  $var wire 1 2 reg_write $end
  $var wire 1 3 alu_source $end
  $var wire 2 4 write_back_source [1:0] $end
  $var wire 1 5 pc_source $end
  $var wire 5 6 source_reg1 [4:0] $end
  $var wire 5 7 source_reg2 [4:0] $end
  $var wire 5 8 dest_reg [4:0] $end
  $var wire 32 9 read_reg1 [31:0] $end
  $var wire 32 : read_reg2 [31:0] $end
  $var wire 32 ; write_back_data [31:0] $end
  $var wire 25 < raw_imm [24:0] $end
  $var wire 32 = immediate [31:0] $end
  $var wire 32 > alu_result [31:0] $end
  $var wire 32 ? alu_src2 [31:0] $end
  $var wire 32 @ mem_read [31:0] $end
  $scope module alu_inst $end
   $var wire 3 A alu_control [2:0] $end
   $var wire 32 B src1 [31:0] $end
   $var wire 32 C src2 [31:0] $end
   $var wire 32 D alu_result [31:0] $end
   $var wire 1 E zero $end
  $upscope $end
  $scope module control_unit $end
   $var wire 7 F op [6:0] $end
   $var wire 3 G func3 [2:0] $end
   $var wire 7 H func7 [6:0] $end
   $var wire 1 I alu_zero $end
   $var wire 3 J alu_control [2:0] $end
   $var wire 2 K imm_source [1:0] $end
   $var wire 1 L mem_write $end
   $var wire 1 M reg_write $end
   $var wire 1 N alu_source $end
   $var wire 2 O write_back_source [1:0] $end
   $var wire 1 P pc_source $end
   $var wire 2 Q alu_op [1:0] $end
   $var wire 1 R branch $end
   $var wire 1 S jump $end
  $upscope $end
  $scope module data_memory $end
   $var wire 32 1! WORDS [31:0] $end
   $var wire 144 2! mem_init [143:0] $end
   $var wire 1 T clk $end
   $var wire 32 U address [31:0] $end
   $var wire 32 V write_data [31:0] $end
   $var wire 1 W write_enable $end
   $var wire 1 X rst_n $end
   $var wire 32 Y read_data [31:0] $end
   $scope module unnamedblk1 $end
    $var wire 32 Z i [31:0] $end
   $upscope $end
  $upscope $end
  $scope module instruction_memory $end
   $var wire 32 1! WORDS [31:0] $end
   $var wire 144 7! mem_init [143:0] $end
   $var wire 1 [ clk $end
   $var wire 32 \ address [31:0] $end
   $var wire 32 ] write_data [31:0] $end
   $var wire 1 ^ write_enable $end
   $var wire 1 _ rst_n $end
   $var wire 32 ` read_data [31:0] $end
   $scope module unnamedblk1 $end
    $var wire 32 a i [31:0] $end
   $upscope $end
  $upscope $end
  $scope module regfile $end
   $var wire 1 b clk $end
   $var wire 1 c rst_n $end
   $var wire 5 d address1 [4:0] $end
   $var wire 5 e address2 [4:0] $end
   $var wire 32 f read_data1 [31:0] $end
   $var wire 32 g read_data2 [31:0] $end
   $var wire 1 h write_enable $end
   $var wire 32 i write_data [31:0] $end
   $var wire 5 j address3 [4:0] $end
   $var wire 32 k registers[0] [31:0] $end
   $var wire 32 l registers[1] [31:0] $end
   $var wire 32 m registers[2] [31:0] $end
   $var wire 32 n registers[3] [31:0] $end
   $var wire 32 o registers[4] [31:0] $end
   $var wire 32 p registers[5] [31:0] $end
   $var wire 32 q registers[6] [31:0] $end
   $var wire 32 r registers[7] [31:0] $end
   $var wire 32 s registers[8] [31:0] $end
   $var wire 32 t registers[9] [31:0] $end
   $var wire 32 u registers[10] [31:0] $end
   $var wire 32 v registers[11] [31:0] $end
   $var wire 32 w registers[12] [31:0] $end
   $var wire 32 x registers[13] [31:0] $end
   $var wire 32 y registers[14] [31:0] $end
   $var wire 32 z registers[15] [31:0] $end
   $var wire 32 { registers[16] [31:0] $end
   $var wire 32 | registers[17] [31:0] $end
   $var wire 32 } registers[18] [31:0] $end
   $var wire 32 ~ registers[19] [31:0] $end
   $var wire 32 !! registers[20] [31:0] $end
   $var wire 32 "! registers[21] [31:0] $end
   $var wire 32 #! registers[22] [31:0] $end
   $var wire 32 $! registers[23] [31:0] $end
   $var wire 32 %! registers[24] [31:0] $end
   $var wire 32 &! registers[25] [31:0] $end
   $var wire 32 '! registers[26] [31:0] $end
   $var wire 32 (! registers[27] [31:0] $end
   $var wire 32 )! registers[28] [31:0] $end
   $var wire 32 *! registers[29] [31:0] $end
   $var wire 32 +! registers[30] [31:0] $end
   $var wire 32 ,! registers[31] [31:0] $end
   $scope module unnamedblk1 $end
    $var wire 32 -! i [31:0] $end
   $upscope $end
  $upscope $end
  $scope module sign_extender $end
   $var wire 25 .! raw_src [24:0] $end
   $var wire 2 /! imm_source [1:0] $end
   $var wire 32 0! immediate [31:0] $end
  $upscope $end
 $upscope $end
$enddefinitions $end


#0
1#
0$
1%
0&
b00000000000000000000000000000000 '
b00000000000000000000000000000100 (
b00000000000000000000000000001000 )
b00000000000000000000000000000100 *
b00000000100000000010100100000011 +
b0000011 ,
b010 -
0.
b000 /
b00 0
01
12
13
b01 4
05
b00000 6
b01000 7
b10010 8
b00000000000000000000000000000000 9
b00000000000000000000000000000000 :
b11011110101011011011111011101111 ;
b0000000010000000001010010 <
b00000000000000000000000000001000 =
b00000000000000000000000000001000 >
b00000000000000000000000000001000 ?
b11011110101011011011111011101111 @
b000 A
b00000000000000000000000000000000 B
b00000000000000000000000000001000 C
b00000000000000000000000000001000 D
0E
b0000011 F
b010 G
b0000000 H
0I
b000 J
b00 K
0L
1M
1N
b01 O
0P
b00 Q
0R
0S
1T
b00000000000000000000000000000010 U
b00000000000000000000000000000000 V
0W
1X
b11011110101011011011111011101111 Y
b00000000000000000000000000000000 Z
1[
b00000000000000000000000000000000 \
b00000000000000000000000000000000 ]
0^
1_
b00000000100000000010100100000011 `
b00000000000000000000000000000000 a
1b
0c
b00000 d
b01000 e
b00000000000000000000000000000000 f
b00000000000000000000000000000000 g
1h
b11011110101011011011111011101111 i
b10010 j
b00000000000000000000000000000000 k
b00000000000000000000000000000000 l
b00000000000000000000000000000000 m
b00000000000000000000000000000000 n
b00000000000000000000000000000000 o
b00000000000000000000000000000000 p
b00000000000000000000000000000000 q
b00000000000000000000000000000000 r
b00000000000000000000000000000000 s
b00000000000000000000000000000000 t
b00000000000000000000000000000000 u
b00000000000000000000000000000000 v
b00000000000000000000000000000000 w
b00000000000000000000000000000000 x
b00000000000000000000000000000000 y
b00000000000000000000000000000000 z
b00000000000000000000000000000000 {
b00000000000000000000000000000000 |
b00000000000000000000000000000000 }
b00000000000000000000000000000000 ~
b00000000000000000000000000000000 !!
b00000000000000000000000000000000 "!
b00000000000000000000000000000000 #!
b00000000000000000000000000000000 $!
b00000000000000000000000000000000 %!
b00000000000000000000000000000000 &!
b00000000000000000000000000000000 '!
b00000000000000000000000000000000 (!
b00000000000000000000000000000000 )!
b00000000000000000000000000000000 *!
b00000000000000000000000000000000 +!
b00000000000000000000000000000000 ,!
b00000000000000000000000000100000 -!
b0000000010000000001010010 .!
b00 /!
b00000000000000000000000000001000 0!
b00000000000000000000000001000000 1!
b001011100010111101110100011001010111001101110100010111110110010001101101011001010110110101101111011100100111100100101110011010000110010101111000 2!
b001011100010111101110100011001010111001101110100010111110110100101101101011001010110110101101111011100100111100100101110011010000110010101111000 7!
#500
0#
0%
0T
0[
0b
#1000
1#
1$
1%
1&
1T
1[
1b
1c
#1500
0#
0%
0T
0[
0b
#2000
1#
1%
b00000000000000000000000000000100 '
b00000000000000000000000000001000 (
b00000000000000000000000000010000 )
b00000000000000000000000000001000 *
b00000001001000000010011000100011 +
b0100011 ,
b01 0
11
02
b00 4
b10010 7
b01100 8
b11011110101011011011111011101111 :
b00000000000000000000000000001100 ;
b0000000100100000001001100 <
b00000000000000000000000000001100 =
b00000000000000000000000000001100 >
b00000000000000000000000000001100 ?
b11110010111100101111001011110010 @
b00000000000000000000000000001100 C
b00000000000000000000000000001100 D
b0100011 F
b01 K
1L
0M
b00 O
1T
b00000000000000000000000000000011 U
b11011110101011011011111011101111 V
1W
b11110010111100101111001011110010 Y
1[
b00000000000000000000000000000001 \
b00000001001000000010011000100011 `
1b
b10010 e
b11011110101011011011111011101111 g
0h
b00000000000000000000000000001100 i
b01100 j
b11011110101011011011111011101111 }
b0000000100100000001001100 .!
b01 /!
b00000000000000000000000000001100 0!
#2500
0#
0%
0T
0[
0b
#3000
1#
1%
b00000000000000000000000000001000 '
b00000000000000000000000000001100 (
b00000000000000000000000000011000 )
b00000000000000000000000000001100 *
b00000001000000000010100110000011 +
b0000011 ,
b00 0
01
12
b01 4
b10000 7
b10011 8
b00000000000000000000000000000000 :
b00000000000000000000101010101010 ;
b0000000100000000001010011 <
b00000000000000000000000000010000 =
b00000000000000000000000000010000 >
b00000000000000000000000000010000 ?
b00000000000000000000101010101010 @
b00000000000000000000000000010000 C
b00000000000000000000000000010000 D
b0000011 F
b00 K
0L
1M
b01 O
1T
b00000000000000000000000000000100 U
b00000000000000000000000000000000 V
0W
b00000000000000000000101010101010 Y
1[
b00000000000000000000000000000010 \
b00000001000000000010100110000011 `
1b
b10000 e
b00000000000000000000000000000000 g
1h
b00000000000000000000101010101010 i
b10011 j
b0000000100000000001010011 .!
b00 /!
b00000000000000000000000000010000 0!
#3500
0#
0%
0T
0[
0b
#4000
1#
1%
b00000000000000000000000000001100 '
b00000000000000000000000000010000 (
b00000000000000000000000000011111 )
b00000000000000000000000000010000 *
b00000001001110010000101000110011 +
b0110011 ,
b000 -
03
b00 4
b10010 6
b10011 7
b10100 8
b11011110101011011011111011101111 9
b00000000000000000000101010101010 :
b11011110101011011100100110011001 ;
b0000000100111001000010100 <
b00000000000000000000000000010011 =
b11011110101011011100100110011001 >
b00000000000000000000101010101010 ?
b00000000000000000000000000000000 @
b11011110101011011011111011101111 B
b00000000000000000000101010101010 C
b11011110101011011100100110011001 D
b0110011 F
b000 G
0N
b00 O
b10 Q
1T
b00110111101010110111001001100110 U
b00000000000000000000101010101010 V
b00000000000000000000000000000000 Y
1[
b00000000000000000000000000000011 \
b00000001001110010000101000110011 `
1b
b10010 d
b10011 e
b11011110101011011011111011101111 f
b00000000000000000000101010101010 g
b11011110101011011100100110011001 i
b10100 j
b00000000000000000000101010101010 ~
b0000000100111001000010100 .!
b00000000000000000000000000010011 0!
#4500
0#
0%
0T
0[
0b
#5000
1#
1%
b00000000000000000000000000010000 '
b00000000000000000000000000010100 (
b00000000000000000000000000100100 )
b00000000000000000000000000010100 *
b00000001010010010111101010110011 +
b111 -
b010 /
b10100 7
b10101 8
b11011110101011011100100110011001 :
b11011110101011011000100010001001 ;
b0000000101001001011110101 <
b00000000000000000000000000010100 =
b11011110101011011000100010001001 >
b11011110101011011100100110011001 ?
b010 A
b11011110101011011100100110011001 C
b11011110101011011000100010001001 D
b111 G
b010 J
1T
b00110111101010110110001000100010 U
b11011110101011011100100110011001 V
1[
b00000000000000000000000000000100 \
b00000001010010010111101010110011 `
1b
b10100 e
b11011110101011011100100110011001 g
b11011110101011011000100010001001 i
b10101 j
b11011110101011011100100110011001 !!
b0000000101001001011110101 .!
b00000000000000000000000000010100 0!
#5500
0#
0%
0T
0[
0b
#6000
1#
1%
b00000000000000000000000000010100 '
b00000000000000000000000000011000 (
b00000000000000000000000000101000 )
b00000000000000000000000000011000 *
b00000001010000000010001010000011 +
b0000011 ,
b010 -
b000 /
13
b01 4
b00000 6
b00101 8
b00000000000000000000000000000000 9
b00010010010111110101010100101101 ;
b0000000101000000001000101 <
b00000000000000000000000000010100 >
b00000000000000000000000000010100 ?
b00010010010111110101010100101101 @
b000 A
b00000000000000000000000000000000 B
b00000000000000000000000000010100 C
b00000000000000000000000000010100 D
b0000011 F
b010 G
b000 J
1N
b01 O
b00 Q
1T
b00000000000000000000000000000101 U
b00010010010111110101010100101101 Y
1[
b00000000000000000000000000000101 \
b00000001010000000010001010000011 `
1b
b00000 d
b00000000000000000000000000000000 f
b00010010010111110101010100101101 i
b00101 j
b11011110101011011000100010001001 "!
b0000000101000000001000101 .!
#6500
0#
0%
0T
0[
0b
#7000
1#
1%
b00000000000000000000000000011000 '
b00000000000000000000000000011100 (
b00000000000000000000000000110000 )
b00000000000000000000000000011100 *
b00000001100000000010001100000011 +
b11000 7
b00110 8
b00000000000000000000000000000000 :
b01111111010011111101010001101010 ;
b0000000110000000001000110 <
b00000000000000000000000000011000 =
b00000000000000000000000000011000 >
b00000000000000000000000000011000 ?
b01111111010011111101010001101010 @
b00000000000000000000000000011000 C
b00000000000000000000000000011000 D
1T
b00000000000000000000000000000110 U
b00000000000000000000000000000000 V
b01111111010011111101010001101010 Y
1[
b00000000000000000000000000000110 \
b00000001100000000010001100000011 `
1b
b11000 e
b00000000000000000000000000000000 g
b01111111010011111101010001101010 i
b00110 j
b00010010010111110101010100101101 p
b0000000110000000001000110 .!
b00000000000000000000000000011000 0!
#7500
0#
0%
0T
0[
0b
#8000
1#
1%
b00000000000000000000000000011100 '
b00000000000000000000000000100000 (
b00000000000000000000000000100010 )
b00000000000000000000000000100000 *
b00000000011000101110001110110011 +
b0110011 ,
b110 -
b011 /
03
b00 4
b00101 6
b00110 7
b00111 8
b00010010010111110101010100101101 9
b01111111010011111101010001101010 :
b01111111010111111101010101101111 ;
b0000000001100010111000111 <
b00000000000000000000000000000110 =
b01111111010111111101010101101111 >
b01111111010011111101010001101010 ?
b00000000000000000000000000000000 @
b011 A
b00010010010111110101010100101101 B
b01111111010011111101010001101010 C
b01111111010111111101010101101111 D
b0110011 F
b110 G
b011 J
0N
b00 O
b10 Q
1T
b00011111110101111111010101011011 U
b01111111010011111101010001101010 V
b00000000000000000000000000000000 Y
1[
b00000000000000000000000000000111 \
b00000000011000101110001110110011 `
1b
b00101 d
b00110 e
b00010010010111110101010100101101 f
b01111111010011111101010001101010 g
b01111111010111111101010101101111 i
b00111 j
b01111111010011111101010001101010 q
b0000000001100010111000111 .!
b00000000000000000000000000000110 0!
#8500
0#
0%
0T
0[
0b
#9000
1#
1%
b00000000000000000000000000100000 '
b00000000000000000000000000100100 (
b00000000000000000000000000101100 )
b00000000000000000000000000100100 *
b00000000011100110000011001100011 +
b1100011 ,
b000 -
b001 /
b10 0
02
b00110 6
b00111 7
b01100 8
b01111111010011111101010001101010 9
b01111111010111111101010101101111 :
b11111111111011111111111011111011 ;
b0000000001110011000001100 <
b00000000000000000000000000001100 =
b11111111111011111111111011111011 >
b01111111010111111101010101101111 ?
b001 A
b01111111010011111101010001101010 B
b01111111010111111101010101101111 C
b11111111111011111111111011111011 D
b1100011 F
b000 G
b001 J
b10 K
0M
b01 Q
1R
1T
b00111111111110111111111110111110 U
b01111111010111111101010101101111 V
1[
b00000000000000000000000000001000 \
b00000000011100110000011001100011 `
1b
b00110 d
b00111 e
b01111111010011111101010001101010 f
b01111111010111111101010101101111 g
0h
b11111111111011111111111011111011 i
b01100 j
b01111111010111111101010101101111 r
b0000000001110011000001100 .!
b10 /!
b00000000000000000000000000001100 0!
#9500
0#
0%
0T
0[
0b
#10000
1#
1%
b00000000000000000000000000100100 '
b00000000000000000000000000101000 (
b00000000000000000000000000101000 *
b00000000100000000010101100000011 +
b0000011 ,
b010 -
b000 /
b00 0
12
13
b01 4
b00000 6
b01000 7
b10110 8
b00000000000000000000000000000000 9
b00000000000000000000000000000000 :
b11011110101011011011111011101111 ;
b0000000010000000001010110 <
b00000000000000000000000000001000 =
b00000000000000000000000000001000 >
b00000000000000000000000000001000 ?
b11011110101011011011111011101111 @
b000 A
b00000000000000000000000000000000 B
b00000000000000000000000000001000 C
b00000000000000000000000000001000 D
b0000011 F
b010 G
b000 J
b00 K
1M
1N
b01 O
b00 Q
0R
1T
b00000000000000000000000000000010 U
b00000000000000000000000000000000 V
b11011110101011011011111011101111 Y
1[
b00000000000000000000000000001001 \
b00000000100000000010101100000011 `
1b
b00000 d
b01000 e
b00000000000000000000000000000000 f
b00000000000000000000000000000000 g
1h
b11011110101011011011111011101111 i
b10110 j
b0000000010000000001010110 .!
b00 /!
b00000000000000000000000000001000 0!
#10500
0#
0%
0T
0[
0b
#11000
1#
1%
b00000000000000000000000000101000 '
b00000000000000000000000000111000 (
b00000000000000000000000000111000 )
b00000000000000000000000000101100 *
b00000001011010010000100001100011 +
b1100011 ,
b000 -
1.
b001 /
b10 0
02
03
b00 4
15
b10010 6
b10110 7
b10000 8
b11011110101011011011111011101111 9
b11011110101011011011111011101111 :
b00000000000000000000000000000000 ;
b0000000101101001000010000 <
b00000000000000000000000000010000 =
b00000000000000000000000000000000 >
b11011110101011011011111011101111 ?
b10101110101011101010111010101110 @
b001 A
b11011110101011011011111011101111 B
b11011110101011011011111011101111 C
b00000000000000000000000000000000 D
1E
b1100011 F
b000 G
1I
b001 J
b10 K
0M
0N
b00 O
1P
b01 Q
1R
1T
b00000000000000000000000000000000 U
b11011110101011011011111011101111 V
b10101110101011101010111010101110 Y
1[
b00000000000000000000000000001010 \
b00000001011010010000100001100011 `
1b
b10010 d
b10110 e
b11011110101011011011111011101111 f
b11011110101011011011111011101111 g
0h
b00000000000000000000000000000000 i
b10000 j
b11011110101011011011111011101111 #!
b0000000101101001000010000 .!
b10 /!
b00000000000000000000000000010000 0!
#11500
0#
0%
0T
0[
0b
#12000
1#
1%
b00000000000000000000000000111000 '
b00000000000000000000000000111100 (
b00000000000000000000000000111100 *
b00000000000000000010101100000011 +
b0000011 ,
b010 -
b000 /
b00 0
12
13
b01 4
05
b00000 6
b00000 7
b10110 8
b00000000000000000000000000000000 9
b00000000000000000000000000000000 :
b10101110101011101010111010101110 ;
b0000000000000000001010110 <
b00000000000000000000000000000000 =
b00000000000000000000000000000000 ?
b000 A
b00000000000000000000000000000000 B
b00000000000000000000000000000000 C
b0000011 F
b010 G
b000 J
b00 K
1M
1N
b01 O
0P
b00 Q
0R
1T
b00000000000000000000000000000000 V
1[
b00000000000000000000000000001110 \
b00000000000000000010101100000011 `
1b
b00000 d
b00000 e
b00000000000000000000000000000000 f
b00000000000000000000000000000000 g
1h
b10101110101011101010111010101110 i
b10110 j
b0000000000000000001010110 .!
b00 /!
b00000000000000000000000000000000 0!
#12500
0#
0%
0T
0[
0b
#13000
1#
1%
b00000000000000000000000000111100 '
b00000000000000000000000000110100 (
b00000000000000000000000000110100 )
b00000000000000000000000001000000 *
b11111111011010110000110011100011 +
b1100011 ,
b000 -
b001 /
b10 0
02
03
b00 4
15
b10110 6
b10110 7
b11001 8
b10101110101011101010111010101110 9
b10101110101011101010111010101110 :
b00000000000000000000000000000000 ;
b1111111101101011000011001 <
b11111111111111111111111111111000 =
b10101110101011101010111010101110 ?
b001 A
b10101110101011101010111010101110 B
b10101110101011101010111010101110 C
b1100011 F
b000 G
b001 J
b10 K
0M
0N
b00 O
1P
b01 Q
1R
1T
b10101110101011101010111010101110 V
1[
b00000000000000000000000000001111 \
b11111111011010110000110011100011 `
1b
b10110 d
b10110 e
b10101110101011101010111010101110 f
b10101110101011101010111010101110 g
0h
b00000000000000000000000000000000 i
b11001 j
b10101110101011101010111010101110 #!
b1111111101101011000011001 .!
b10 /!
b11111111111111111111111111111000 0!
#13500
0#
0%
0T
0[
0b
#14000
1#
1%
b00000000000000000000000000110100 '
b00000000000000000000000001000000 (
b00000000000000000000000001000000 )
b00000000000000000000000000111000 *
b00000000000000000000011001100011 +
b00000 6
b00000 7
b01100 8
b00000000000000000000000000000000 9
b00000000000000000000000000000000 :
b0000000000000000000001100 <
b00000000000000000000000000001100 =
b00000000000000000000000000000000 ?
b00000000000000000000000000000000 B
b00000000000000000000000000000000 C
1T
b00000000000000000000000000000000 V
1[
b00000000000000000000000000001101 \
b00000000000000000000011001100011 `
1b
b00000 d
b00000 e
b00000000000000000000000000000000 f
b00000000000000000000000000000000 g
b01100 j
b0000000000000000000001100 .!
b00000000000000000000000000001100 0!
#14500
0#
0%
0T
0[
0b
#15000
1#
1%
b00000000000000000000000001000000 '
b00000000000000000000000001000100 (
b00000000000000000000000001000100 *
b00000000000000000000000000010011 +
b0010011 ,
b000 /
b00 0
05
b00000 8
b0000000000000000000000000 <
b00000000000000000000000000000000 =
b000 A
b0010011 F
b000 J
b00 K
0P
b00 Q
0R
1T
1[
b00000000000000000000000000010000 \
b00000000000000000000000000010011 `
1b
b00000 j
b0000000000000000000000000 .!
b00 /!
b00000000000000000000000000000000 0!
#15500
0#
0%
0T
0[
0b
#16000
1#
1%
b00000000000000000000000001000100 '
b00000000000000000000000001010000 (
b00000000000000000000000001010000 )
b00000000000000000000000001001000 *
b00000000110000000000000011101111 +
b1101111 ,
b11 0
12
b10 4
15
b01100 7
b00001 8
b00000000000000000000000001001000 ;
b0000000011000000000000001 <
b00000000000000000000000000001100 =
b1101111 F
b11 K
1M
b10 O
1P
1S
1T
1[
b00000000000000000000000000010001 \
b00000000110000000000000011101111 `
1b
b01100 e
1h
b00000000000000000000000001001000 i
b00001 j
b0000000011000000000000001 .!
b11 /!
b00000000000000000000000000001100 0!
#16500
0#
0%
0T
0[
0b
#17000
1#
1%
b00000000000000000000000001010000 '
b00000000000000000000000001001100 (
b00000000000000000000000001001100 )
b00000000000000000000000001010100 *
b11111111110111111111000011101111 +
b111 -
b11111 6
b11101 7
b00000000000000000000000001010100 ;
b1111111111011111111100001 <
b11111111111111111111111111111100 =
b111 G
1T
1[
b00000000000000000000000000010100 \
b11111111110111111111000011101111 `
1b
b11111 d
b11101 e
b00000000000000000000000001010100 i
b00000000000000000000000001001000 l
b1111111111011111111100001 .!
b11111111111111111111111111111100 0!
#17500
0#
0%
0T
0[
0b
#18000
1#
1%
b00000000000000000000000001001100 '
b00000000000000000000000001011000 (
b00000000000000000000000001011000 )
b00000000000000000000000001010000 *
b00000000110000000000000011101111 +
b000 -
b00000 6
b01100 7
b00000000000000000000000001010000 ;
b0000000011000000000000001 <
b00000000000000000000000000001100 =
b000 G
1T
1[
b00000000000000000000000000010011 \
b00000000110000000000000011101111 `
1b
b00000 d
b01100 e
b00000000000000000000000001010000 i
b00000000000000000000000001010100 l
b0000000011000000000000001 .!
b00000000000000000000000000001100 0!
#18500
0#
0%
0T
0[
0b
#19000
1#
1%
b00000000000000000000000001011000 '
b00000000000000000000000001011100 (
b00000000000000000000000001100100 )
b00000000000000000000000001011100 *
b00000000110000000010001110000011 +
b0000011 ,
b010 -
0.
b00 0
13
b01 4
05
b00111 8
b11011110101011011011111011101111 ;
b0000000011000000001000111 <
b00000000000000000000000000001100 >
b00000000000000000000000000001100 ?
b11011110101011011011111011101111 @
b00000000000000000000000000001100 C
b00000000000000000000000000001100 D
0E
b0000011 F
b010 G
0I
b00 K
1N
b01 O
0P
0S
1T
b00000000000000000000000000000011 U
b11011110101011011011111011101111 Y
1[
b00000000000000000000000000010110 \
b00000000110000000010001110000011 `
1b
b11011110101011011011111011101111 i
b00111 j
b00000000000000000000000001010000 l
b0000000011000000001000111 .!
b00 /!
#19500
0#
0%
0T
0[
0b
#20000
1#
1%
b00000000000000000000000001011100 '
b00000000000000000000000001100000 (
b00000000000000000000000001011100 )
b00000000000000000000000001100000 *
b00000000000000000000000000010011 +
b0010011 ,
b000 -
1.
02
03
b00 4
b00000 7
b00000 8
b00000000000000000000000000000000 ;
b0000000000000000000000000 <
b00000000000000000000000000000000 =
b00000000000000000000000000000000 >
b00000000000000000000000000000000 ?
b10101110101011101010111010101110 @
b00000000000000000000000000000000 C
b00000000000000000000000000000000 D
1E
b0010011 F
b000 G
1I
0M
0N
b00 O
1T
b00000000000000000000000000000000 U
b10101110101011101010111010101110 Y
1[
b00000000000000000000000000010111 \
b00000000000000000000000000010011 `
1b
b00000 e
0h
b00000000000000000000000000000000 i
b00000 j
b11011110101011011011111011101111 r
b0000000000000000000000000 .!
b00000000000000000000000000000000 0!
#20500
0#
0%
0T
0[
0b
#21000
1#
1%
b00000000000000000000000001100000 '
b00000000000000000000000001100100 (
b00000000000000000000000001100000 )
b00000000000000000000000001100100 *
1T
1[
b00000000000000000000000000011000 \
1b
