load/tb/reg/dump.vcd
$version Generated by VerilatedVcd $end
$timescale 1ps $end
 $scope module $rootio $end
  $var wire 1 # clk $end
  $var wire 1 $ rst_n $end
  $var wire 5 % address1 [4:0] $end
  $var wire 5 & address2 [4:0] $end
  $var wire 32 ' read_data1 [31:0] $end
  $var wire 32 ( read_data2 [31:0] $end
  $var wire 1 ) write_enable $end
  $var wire 32 * write_data [31:0] $end
  $var wire 5 + address3 [4:0] $end
 $upscope $end
 $scope module regfile $end
  $var wire 1 , clk $end
  $var wire 1 - rst_n $end
  $var wire 5 . address1 [4:0] $end
  $var wire 5 / address2 [4:0] $end
  $var wire 32 0 read_data1 [31:0] $end
  $var wire 32 1 read_data2 [31:0] $end
  $var wire 1 2 write_enable $end
  $var wire 32 3 write_data [31:0] $end
  $var wire 5 4 address3 [4:0] $end
  $var wire 32 5 registers[0] [31:0] $end
  $var wire 32 6 registers[1] [31:0] $end
  $var wire 32 7 registers[2] [31:0] $end
  $var wire 32 8 registers[3] [31:0] $end
  $var wire 32 9 registers[4] [31:0] $end
  $var wire 32 : registers[5] [31:0] $end
  $var wire 32 ; registers[6] [31:0] $end
  $var wire 32 < registers[7] [31:0] $end
  $var wire 32 = registers[8] [31:0] $end
  $var wire 32 > registers[9] [31:0] $end
  $var wire 32 ? registers[10] [31:0] $end
  $var wire 32 @ registers[11] [31:0] $end
  $var wire 32 A registers[12] [31:0] $end
  $var wire 32 B registers[13] [31:0] $end
  $var wire 32 C registers[14] [31:0] $end
  $var wire 32 D registers[15] [31:0] $end
  $var wire 32 E registers[16] [31:0] $end
  $var wire 32 F registers[17] [31:0] $end
  $var wire 32 G registers[18] [31:0] $end
  $var wire 32 H registers[19] [31:0] $end
  $var wire 32 I registers[20] [31:0] $end
  $var wire 32 J registers[21] [31:0] $end
  $var wire 32 K registers[22] [31:0] $end
  $var wire 32 L registers[23] [31:0] $end
  $var wire 32 M registers[24] [31:0] $end
  $var wire 32 N registers[25] [31:0] $end
  $var wire 32 O registers[26] [31:0] $end
  $var wire 32 P registers[27] [31:0] $end
  $var wire 32 Q registers[28] [31:0] $end
  $var wire 32 R registers[29] [31:0] $end
  $var wire 32 S registers[30] [31:0] $end
  $var wire 32 T registers[31] [31:0] $end
  $scope module unnamedblk1 $end
   $var wire 32 U i [31:0] $end
  $upscope $end
 $upscope $end
$enddefinitions $end


#0
1#
0$
b00000 %
b00000 &
b00000000000000000000000000000000 '
b00000000000000000000000000000000 (
0)
b00000000000000000000000000000000 *
b00000 +
1,
0-
b00000 .
b00000 /
b00000000000000000000000000000000 0
b00000000000000000000000000000000 1
02
b00000000000000000000000000000000 3
b00000 4
b00000000000000000000000000000000 5
b00000000000000000000000000000000 6
b00000000000000000000000000000000 7
b00000000000000000000000000000000 8
b00000000000000000000000000000000 9
b00000000000000000000000000000000 :
b00000000000000000000000000000000 ;
b00000000000000000000000000000000 <
b00000000000000000000000000000000 =
b00000000000000000000000000000000 >
b00000000000000000000000000000000 ?
b00000000000000000000000000000000 @
b00000000000000000000000000000000 A
b00000000000000000000000000000000 B
b00000000000000000000000000000000 C
b00000000000000000000000000000000 D
b00000000000000000000000000000000 E
b00000000000000000000000000000000 F
b00000000000000000000000000000000 G
b00000000000000000000000000000000 H
b00000000000000000000000000000000 I
b00000000000000000000000000000000 J
b00000000000000000000000000000000 K
b00000000000000000000000000000000 L
b00000000000000000000000000000000 M
b00000000000000000000000000000000 N
b00000000000000000000000000000000 O
b00000000000000000000000000000000 P
b00000000000000000000000000000000 Q
b00000000000000000000000000000000 R
b00000000000000000000000000000000 S
b00000000000000000000000000000000 T
b00000000000000000000000000100000 U
#5000
0#
0,
#10000
1#
1$
1,
1-
#15000
0#
0,
#20000
1#
1,
#21000
b11101 %
b11100 &
b11101 .
b11100 /
#22000
1)
b10110000100110110011001111010110 *
b10000 +
12
b10110000100110110011001111010110 3
b10000 4
#25000
0#
0,
#30000
1#
0)
1,
02
b10110000100110110011001111010110 E
#32000
b11010 %
b10000 &
b10110000100110110011001111010110 (
b11010 .
b10000 /
b10110000100110110011001111010110 1
#33000
1)
b01110011011100011101000111101100 *
b01111 +
12
b01110011011100011101000111101100 3
b01111 4
#35000
0#
0,
#40000
1#
0)
1,
02
b01110011011100011101000111101100 D
#42000
b10111 %
b11001 &
b00000000000000000000000000000000 (
b10111 .
b11001 /
b00000000000000000000000000000000 1
#43000
1)
b00100001100101101100011000001100 *
12
b00100001100101101100011000001100 3
#45000
0#
0,
#50000
1#
0)
1,
02
b00100001100101101100011000001100 D
#52000
b01010 %
b11011 &
b01010 .
b11011 /
#53000
1)
b01011101110110100011101010100111 *
b10011 +
12
b01011101110110100011101010100111 3
b10011 4
#55000
0#
0,
#60000
1#
0)
1,
02
b01011101110110100011101010100111 H
#62000
b10001 %
b00110 &
b10001 .
b00110 /
#63000
1)
b10010101111010111101111011011101 *
b01101 +
12
b10010101111010111101111011011101 3
b01101 4
#65000
0#
0,
#70000
1#
0)
1,
02
b10010101111010111101111011011101 B
#72000
b11100 %
b11010 &
b11100 .
b11010 /
#73000
1)
b00000011011010001100011111000100 *
b11010 +
12
b00000011011010001100011111000100 3
b11010 4
#75000
0#
0,
#80000
1#
b00000011011010001100011111000100 (
0)
1,
b00000011011010001100011111000100 1
02
b00000011011010001100011111000100 O
#82000
b11000 %
b11000 &
b00000000000000000000000000000000 (
b11000 .
b11000 /
b00000000000000000000000000000000 1
#83000
1)
b11010010001101010100101110100001 *
b00011 +
12
b11010010001101010100101110100001 3
b00011 4
#85000
0#
0,
#90000
1#
0)
1,
02
b11010010001101010100101110100001 8
#92000
b00111 %
b11101 &
b00111 .
b11101 /
#93000
1)
b00000101110100000100010101111010 *
b11101 +
12
b00000101110100000100010101111010 3
b11101 4
#95000
0#
0,
#100000
1#
b00000101110100000100010101111010 (
0)
1,
b00000101110100000100010101111010 1
02
b00000101110100000100010101111010 R
#102000
b10110 %
b10000 &
b10110000100110110011001111010110 (
b10110 .
b10000 /
b10110000100110110011001111010110 1
#103000
1)
b01000100001010110101111111110101 *
b11011 +
12
b01000100001010110101111111110101 3
b11011 4
#105000
0#
0,
#110000
1#
0)
1,
02
b01000100001010110101111111110101 P
#112000
b00111 %
b01001 &
b00000000000000000000000000000000 (
b00111 .
b01001 /
b00000000000000000000000000000000 1
#113000
1)
b11011011101000101000110111011001 *
b11110 +
12
b11011011101000101000110111011001 3
b11110 4
#115000
0#
0,
#120000
1#
0)
1,
02
b11011011101000101000110111011001 S
#122000
b01010 %
b01101 &
b10010101111010111101111011011101 (
b01010 .
b01101 /
b10010101111010111101111011011101 1
#123000
1)
b11000011011101111101010000010101 *
b00101 +
12
b11000011011101111101010000010101 3
b00101 4
#125000
0#
0,
#130000
1#
0)
1,
02
b11000011011101111101010000010101 :
#132000
b01000 %
b11101 &
b00000101110100000100010101111010 (
b01000 .
b11101 /
b00000101110100000100010101111010 1
#133000
1)
b10011100010010010111101010101101 *
b01011 +
12
b10011100010010010111101010101101 3
b01011 4
#135000
0#
0,
#140000
1#
0)
1,
02
b10011100010010010111101010101101 @
#142000
b00110 %
b11110 &
b11011011101000101000110111011001 (
b00110 .
b11110 /
b11011011101000101000110111011001 1
#143000
1)
b01000110111111100110001001110001 *
b10001 +
12
b01000110111111100110001001110001 3
b10001 4
#145000
0#
0,
#150000
1#
0)
1,
02
b01000110111111100110001001110001 F
#152000
b01111 %
b10100 &
b00100001100101101100011000001100 '
b00000000000000000000000000000000 (
b01111 .
b10100 /
b00100001100101101100011000001100 0
b00000000000000000000000000000000 1
#153000
1)
b00100101100110000110011101001001 *
12
b00100101100110000110011101001001 3
#155000
0#
0,
#160000
1#
0)
1,
02
b00100101100110000110011101001001 F
#162000
b00110 %
b11111 &
b00000000000000000000000000000000 '
b00110 .
b11111 /
b00000000000000000000000000000000 0
#163000
1)
b00110011110101110111100101010111 *
b10101 +
12
b00110011110101110111100101010111 3
b10101 4
#165000
0#
0,
#170000
1#
0)
1,
02
b00110011110101110111100101010111 J
#172000
b01110 %
b10011 &
b01011101110110100011101010100111 (
b01110 .
b10011 /
b01011101110110100011101010100111 1
#173000
1)
b00111101100000010111000111010110 *
b11000 +
12
b00111101100000010111000111010110 3
b11000 4
#175000
0#
0,
#180000
1#
0)
1,
02
b00111101100000010111000111010110 M
#182000
b01111 &
b00100001100101101100011000001100 (
b01111 /
b00100001100101101100011000001100 1
#183000
1)
b01101011110000101111100111010011 *
b00101 +
12
b01101011110000101111100111010011 3
b00101 4
#185000
0#
0,
#190000
1#
0)
1,
02
b01101011110000101111100111010011 :
#192000
b00001 %
b11111 &
b00000000000000000000000000000000 (
b00001 .
b11111 /
b00000000000000000000000000000000 1
#193000
1)
b00100001011001010101011000001011 *
12
b00100001011001010101011000001011 3
#195000
0#
0,
#200000
1#
0)
1,
02
b00100001011001010101011000001011 :
#202000
b01011 %
b01111 &
b10011100010010010111101010101101 '
b00100001100101101100011000001100 (
b01011 .
b01111 /
b10011100010010010111101010101101 0
b00100001100101101100011000001100 1
#203000
1)
b01101110110010110110101110101101 *
b10011 +
12
b01101110110010110110101110101101 3
b10011 4
#205000
0#
0,
#210000
1#
0)
1,
02
b01101110110010110110101110101101 H
#212000
b10001 %
b01000 &
b00100101100110000110011101001001 '
b00000000000000000000000000000000 (
b10001 .
b01000 /
b00100101100110000110011101001001 0
b00000000000000000000000000000000 1
#213000
1)
b01101111100110010000110010010010 *
b01111 +
12
b01101111100110010000110010010010 3
b01111 4
#215000
0#
0,
#220000
1#
0)
1,
02
b01101111100110010000110010010010 D
#222000
b00101 %
b11001 &
b00100001011001010101011000001011 '
b00101 .
b11001 /
b00100001011001010101011000001011 0
#223000
1)
b01100100010101100111101011111010 *
b00010 +
12
b01100100010101100111101011111010 3
b00010 4
#225000
0#
0,
#230000
1#
0)
1,
02
b01100100010101100111101011111010 7
#232000
b11000 %
b00111 &
b00111101100000010111000111010110 '
b11000 .
b00111 /
b00111101100000010111000111010110 0
#233000
1)
b01000110100010100100010101110010 *
b01010 +
12
b01000110100010100100010101110010 3
b01010 4
#235000
0#
0,
#240000
1#
0)
1,
02
b01000110100010100100010101110010 ?
#242000
b01111 %
b11110 &
b01101111100110010000110010010010 '
b11011011101000101000110111011001 (
b01111 .
b11110 /
b01101111100110010000110010010010 0
b11011011101000101000110111011001 1
#243000
1)
b01011000001001101111101010111000 *
b01001 +
12
b01011000001001101111101010111000 3
b01001 4
#245000
0#
0,
#250000
1#
0)
1,
02
b01011000001001101111101010111000 >
#252000
b11011 &
b01000100001010110101111111110101 (
b11011 /
b01000100001010110101111111110101 1
#253000
1)
b01000000010010001110101001111110 *
b00011 +
12
b01000000010010001110101001111110 3
b00011 4
#255000
0#
0,
#260000
1#
0)
1,
02
b01000000010010001110101001111110 8
#262000
b01001 %
b10100 &
b01011000001001101111101010111000 '
b00000000000000000000000000000000 (
b01001 .
b10100 /
b01011000001001101111101010111000 0
b00000000000000000000000000000000 1
#263000
1)
b11111000000101101011101110000000 *
b01100 +
12
b11111000000101101011101110000000 3
b01100 4
#265000
0#
0,
#270000
1#
0)
1,
02
b11111000000101101011101110000000 A
#272000
b11010 %
b01101 &
b00000011011010001100011111000100 '
b10010101111010111101111011011101 (
b11010 .
b01101 /
b00000011011010001100011111000100 0
b10010101111010111101111011011101 1
#273000
1)
b00001011101011110011010001000001 *
b10101 +
12
b00001011101011110011010001000001 3
b10101 4
#275000
0#
0,
#280000
1#
0)
1,
02
b00001011101011110011010001000001 J
#282000
b01110 %
b01111 &
b00000000000000000000000000000000 '
b01101111100110010000110010010010 (
b01110 .
b01111 /
b00000000000000000000000000000000 0
b01101111100110010000110010010010 1
#283000
1)
b00111110000110110000001001001010 *
b11110 +
12
b00111110000110110000001001001010 3
b11110 4
#285000
0#
0,
#290000
1#
0)
1,
02
b00111110000110110000001001001010 S
#292000
b11000 %
b11111 &
b00111101100000010111000111010110 '
b00000000000000000000000000000000 (
b11000 .
b11111 /
b00111101100000010111000111010110 0
b00000000000000000000000000000000 1
#293000
1)
b00111001010010100001001011110101 *
b01110 +
12
b00111001010010100001001011110101 3
b01110 4
#295000
0#
0,
#300000
1#
0)
1,
02
b00111001010010100001001011110101 C
#302000
b11001 %
b10100 &
b00000000000000000000000000000000 '
b11001 .
b10100 /
b00000000000000000000000000000000 0
#303000
1)
b01000000001111110110101110100000 *
b10100 +
12
b01000000001111110110101110100000 3
b10100 4
#305000
0#
0,
#310000
1#
b01000000001111110110101110100000 (
0)
1,
b01000000001111110110101110100000 1
02
b01000000001111110110101110100000 I
#312000
b10010 %
b11110 &
b00111110000110110000001001001010 (
b10010 .
b11110 /
b00111110000110110000001001001010 1
#313000
1)
b01100011110101101001100110111001 *
b01010 +
12
b01100011110101101001100110111001 3
b01010 4
#315000
0#
0,
#320000
1#
0)
1,
02
b01100011110101101001100110111001 ?
#322000
b01011 %
b00100 &
b10011100010010010111101010101101 '
b00000000000000000000000000000000 (
b01011 .
b00100 /
b10011100010010010111101010101101 0
b00000000000000000000000000000000 1
#323000
1)
b11101001101000011101000010111000 *
b10100 +
12
b11101001101000011101000010111000 3
b10100 4
#325000
0#
0,
#330000
1#
0)
1,
02
b11101001101000011101000010111000 I
#332000
b00111 %
b10110 &
b00000000000000000000000000000000 '
b00111 .
b10110 /
b00000000000000000000000000000000 0
#333000
1)
b00101111010111101101111010011100 *
b00011 +
12
b00101111010111101101111010011100 3
b00011 4
#335000
0#
0,
#340000
1#
0)
1,
02
b00101111010111101101111010011100 8
#342000
b10111 %
b01111 &
b01101111100110010000110010010010 (
b10111 .
b01111 /
b01101111100110010000110010010010 1
#343000
1)
b11100001001101110001111101100011 *
b11111 +
12
b11100001001101110001111101100011 3
b11111 4
#345000
0#
0,
#350000
1#
0)
1,
02
b11100001001101110001111101100011 T
#352000
b11011 %
b10110 &
b01000100001010110101111111110101 '
b00000000000000000000000000000000 (
b11011 .
b10110 /
b01000100001010110101111111110101 0
b00000000000000000000000000000000 1
#353000
1)
b00000101000100100100001111001100 *
b01011 +
12
b00000101000100100100001111001100 3
b01011 4
#355000
0#
0,
#360000
1#
0)
1,
02
b00000101000100100100001111001100 @
#362000
b11110 %
b00111110000110110000001001001010 '
b11110 .
b00111110000110110000001001001010 0
#363000
1)
b00100100000111111100100000101011 *
b10001 +
12
b00100100000111111100100000101011 3
b10001 4
#365000
0#
0,
#370000
1#
0)
1,
02
b00100100000111111100100000101011 F
#372000
b01010 %
b01100 &
b01100011110101101001100110111001 '
b11111000000101101011101110000000 (
b01010 .
b01100 /
b01100011110101101001100110111001 0
b11111000000101101011101110000000 1
#373000
1)
b11010000100100011000011110100001 *
b00110 +
12
b11010000100100011000011110100001 3
b00110 4
#375000
0#
0,
#380000
1#
0)
1,
02
b11010000100100011000011110100001 ;
#382000
b00001 %
b11010 &
b00000000000000000000000000000000 '
b00000011011010001100011111000100 (
b00001 .
b11010 /
b00000000000000000000000000000000 0
b00000011011010001100011111000100 1
#383000
1)
b01001100011111010011011010001000 *
b00100 +
12
b01001100011111010011011010001000 3
b00100 4
#385000
0#
0,
#390000
1#
0)
1,
02
b01001100011111010011011010001000 9
#392000
b10111 %
b10111 &
b00000000000000000000000000000000 (
b10111 .
b10111 /
b00000000000000000000000000000000 1
#393000
1)
b11011100000111011001110000000110 *
b10110 +
12
b11011100000111011001110000000110 3
b10110 4
#395000
0#
0,
#400000
1#
0)
1,
02
b11011100000111011001110000000110 K
#402000
b10100 %
b01101 &
b11101001101000011101000010111000 '
b10010101111010111101111011011101 (
b10100 .
b01101 /
b11101001101000011101000010111000 0
b10010101111010111101111011011101 1
#403000
1)
b10101100100011011011110101000011 *
b11110 +
12
b10101100100011011011110101000011 3
b11110 4
#405000
0#
0,
#410000
1#
0)
1,
02
b10101100100011011011110101000011 S
#412000
b01100 %
b01010 &
b11111000000101101011101110000000 '
b01100011110101101001100110111001 (
b01100 .
b01010 /
b11111000000101101011101110000000 0
b01100011110101101001100110111001 1
#413000
1)
b10110101101010001111010001110111 *
b01001 +
12
b10110101101010001111010001110111 3
b01001 4
#415000
0#
0,
#420000
1#
0)
1,
02
b10110101101010001111010001110111 >
#422000
b01010 %
b01000 &
b01100011110101101001100110111001 '
b00000000000000000000000000000000 (
b01010 .
b01000 /
b01100011110101101001100110111001 0
b00000000000000000000000000000000 1
#423000
1)
b01101100110111100000010101100100 *
b11100 +
12
b01101100110111100000010101100100 3
b11100 4
#425000
0#
0,
#430000
1#
0)
1,
02
b01101100110111100000010101100100 Q
#432000
b01110 %
b11110 &
b00111001010010100001001011110101 '
b10101100100011011011110101000011 (
b01110 .
b11110 /
b00111001010010100001001011110101 0
b10101100100011011011110101000011 1
#433000
1)
b11110001111011010100101011111010 *
b01010 +
12
b11110001111011010100101011111010 3
b01010 4
#435000
0#
0,
#440000
1#
0)
1,
02
b11110001111011010100101011111010 ?
#442000
b11011 %
b00001 &
b01000100001010110101111111110101 '
b00000000000000000000000000000000 (
b11011 .
b00001 /
b01000100001010110101111111110101 0
b00000000000000000000000000000000 1
#443000
1)
b10000001000000110000100000011001 *
b01111 +
12
b10000001000000110000100000011001 3
b01111 4
#445000
0#
0,
#450000
1#
0)
1,
02
b10000001000000110000100000011001 D
#452000
b10011 %
b01101110110010110110101110101101 '
b10011 .
b01101110110010110110101110101101 0
#453000
1)
b10011110011001110110100110101001 *
b00111 +
12
b10011110011001110110100110101001 3
b00111 4
#455000
0#
0,
#460000
1#
0)
1,
02
b10011110011001110110100110101001 <
#462000
b11001 %
b10000 &
b00000000000000000000000000000000 '
b10110000100110110011001111010110 (
b11001 .
b10000 /
b00000000000000000000000000000000 0
b10110000100110110011001111010110 1
#463000
1)
b00010110100010011111110001001111 *
b01000 +
12
b00010110100010011111110001001111 3
b01000 4
#465000
0#
0,
#470000
1#
0)
1,
02
b00010110100010011111110001001111 =
#472000
b01010 %
b10100 &
b11110001111011010100101011111010 '
b11101001101000011101000010111000 (
b01010 .
b10100 /
b11110001111011010100101011111010 0
b11101001101000011101000010111000 1
#473000
1)
b10000111010000100110011001101000 *
b10000 +
12
b10000111010000100110011001101000 3
b10000 4
#475000
0#
0,
#480000
1#
0)
1,
02
b10000111010000100110011001101000 E
#482000
b10100 %
b01011 &
b11101001101000011101000010111000 '
b00000101000100100100001111001100 (
b10100 .
b01011 /
b11101001101000011101000010111000 0
b00000101000100100100001111001100 1
#483000
1)
b11010011001000001111101000011000 *
b10011 +
12
b11010011001000001111101000011000 3
b10011 4
#485000
0#
0,
#490000
1#
0)
1,
02
b11010011001000001111101000011000 H
#492000
b10110 %
b10001 &
b11011100000111011001110000000110 '
b00100100000111111100100000101011 (
b10110 .
b10001 /
b11011100000111011001110000000110 0
b00100100000111111100100000101011 1
#493000
1)
b01010010100010100010111001000111 *
12
b01010010100010100010111001000111 3
#495000
0#
0,
#500000
1#
0)
1,
02
b01010010100010100010111001000111 H
#502000
b01110 %
b01001 &
b00111001010010100001001011110101 '
b10110101101010001111010001110111 (
b01110 .
b01001 /
b00111001010010100001001011110101 0
b10110101101010001111010001110111 1
#503000
1)
b10011101011101010110111100101010 *
b10111 +
12
b10011101011101010110111100101010 3
b10111 4
#505000
0#
0,
#510000
1#
0)
1,
02
b10011101011101010110111100101010 L
#512000
b01010 %
b11111 &
b11110001111011010100101011111010 '
b11100001001101110001111101100011 (
b01010 .
b11111 /
b11110001111011010100101011111010 0
b11100001001101110001111101100011 1
#513000
1)
b00000101010000110100011001111000 *
b11100 +
12
b00000101010000110100011001111000 3
b11100 4
#515000
0#
0,
#520000
1#
0)
1,
02
b00000101010000110100011001111000 Q
#522000
b00101 %
b01100 &
b00100001011001010101011000001011 '
b11111000000101101011101110000000 (
b00101 .
b01100 /
b00100001011001010101011000001011 0
b11111000000101101011101110000000 1
#523000
1)
b00001010010110101100111101100001 *
b10001 +
12
b00001010010110101100111101100001 3
b10001 4
#525000
0#
0,
#530000
1#
0)
1,
02
b00001010010110101100111101100001 F
#532000
b01111 %
b10001 &
b10000001000000110000100000011001 '
b00001010010110101100111101100001 (
b01111 .
b10001 /
b10000001000000110000100000011001 0
b00001010010110101100111101100001 1
#533000
1)
b01110110011011100101110111000011 *
b00010 +
12
b01110110011011100101110111000011 3
b00010 4
#535000
0#
0,
#540000
1#
0)
1,
02
b01110110011011100101110111000011 7
#542000
b11010 %
b00110 &
b00000011011010001100011111000100 '
b11010000100100011000011110100001 (
b11010 .
b00110 /
b00000011011010001100011111000100 0
b11010000100100011000011110100001 1
#543000
1)
b10111000100110001010001001011011 *
b00001 +
12
b10111000100110001010001001011011 3
b00001 4
#545000
0#
0,
#550000
1#
0)
1,
02
b10111000100110001010001001011011 6
#552000
b00100 %
b01000 &
b01001100011111010011011010001000 '
b00010110100010011111110001001111 (
b00100 .
b01000 /
b01001100011111010011011010001000 0
b00010110100010011111110001001111 1
#553000
1)
b00001111110101100110110011001010 *
b00100 +
12
b00001111110101100110110011001010 3
b00100 4
#555000
0#
0,
#560000
1#
b00001111110101100110110011001010 '
0)
1,
b00001111110101100110110011001010 0
02
b00001111110101100110110011001010 9
#562000
b01101 %
b11001 &
b10010101111010111101111011011101 '
b00000000000000000000000000000000 (
b01101 .
b11001 /
b10010101111010111101111011011101 0
b00000000000000000000000000000000 1
#563000
1)
b00101110110001001001101111000110 *
b11110 +
12
b00101110110001001001101111000110 3
b11110 4
#565000
0#
0,
#570000
1#
0)
1,
02
b00101110110001001001101111000110 S
#572000
b00110 %
b10101 &
b11010000100100011000011110100001 '
b00001011101011110011010001000001 (
b00110 .
b10101 /
b11010000100100011000011110100001 0
b00001011101011110011010001000001 1
#573000
1)
b00011011111100011101010111001010 *
b10100 +
12
b00011011111100011101010111001010 3
b10100 4
#575000
0#
0,
#580000
1#
0)
1,
02
b00011011111100011101010111001010 I
#582000
b01001 %
b10110101101010001111010001110111 '
b01001 .
b10110101101010001111010001110111 0
#583000
1)
b11011001110100100011100011100001 *
b00111 +
12
b11011001110100100011100011100001 3
b00111 4
#585000
0#
0,
#590000
1#
0)
1,
02
b11011001110100100011100011100001 <
#592000
b10100 %
b11100 &
b00011011111100011101010111001010 '
b00000101010000110100011001111000 (
b10100 .
b11100 /
b00011011111100011101010111001010 0
b00000101010000110100011001111000 1
#593000
1)
b10011010001100110010101110011001 *
b11001 +
12
b10011010001100110010101110011001 3
b11001 4
#595000
0#
0,
#600000
1#
0)
1,
02
b10011010001100110010101110011001 N
#602000
b00111 %
b00110 &
b11011001110100100011100011100001 '
b11010000100100011000011110100001 (
b00111 .
b00110 /
b11011001110100100011100011100001 0
b11010000100100011000011110100001 1
#603000
1)
b00100000101010101011110001010011 *
b01000 +
12
b00100000101010101011110001010011 3
b01000 4
#605000
0#
0,
#610000
1#
0)
1,
02
b00100000101010101011110001010011 =
#612000
b11001 %
b10000 &
b10011010001100110010101110011001 '
b10000111010000100110011001101000 (
b11001 .
b10000 /
b10011010001100110010101110011001 0
b10000111010000100110011001101000 1
#613000
1)
b11001000111101000101001000111000 *
b11100 +
12
b11001000111101000101001000111000 3
b11100 4
#615000
0#
0,
#620000
1#
0)
1,
02
b11001000111101000101001000111000 Q
#622000
b01011 %
b10010 &
b00000101000100100100001111001100 '
b00000000000000000000000000000000 (
b01011 .
b10010 /
b00000101000100100100001111001100 0
b00000000000000000000000000000000 1
#623000
1)
b11001101100000001100100010101101 *
b11010 +
12
b11001101100000001100100010101101 3
b11010 4
#625000
0#
0,
#630000
1#
0)
1,
02
b11001101100000001100100010101101 O
#632000
b11001 %
b01001 &
b10011010001100110010101110011001 '
b10110101101010001111010001110111 (
b11001 .
b01001 /
b10011010001100110010101110011001 0
b10110101101010001111010001110111 1
#633000
1)
b11000110101101110001100000010011 *
b11001 +
12
b11000110101101110001100000010011 3
b11001 4
#635000
0#
0,
#640000
1#
b11000110101101110001100000010011 '
0)
1,
b11000110101101110001100000010011 0
02
b11000110101101110001100000010011 N
#642000
b01101 %
b11111 &
b10010101111010111101111011011101 '
b11100001001101110001111101100011 (
b01101 .
b11111 /
b10010101111010111101111011011101 0
b11100001001101110001111101100011 1
#643000
1)
b10101001100011111001110000110110 *
b00111 +
12
b10101001100011111001110000110110 3
b00111 4
#645000
0#
0,
#650000
1#
0)
1,
02
b10101001100011111001110000110110 <
#652000
b10010 %
b10010 &
b00000000000000000000000000000000 '
b00000000000000000000000000000000 (
b10010 .
b10010 /
b00000000000000000000000000000000 0
b00000000000000000000000000000000 1
#653000
1)
b11110101110100101100001001010000 *
b11101 +
12
b11110101110100101100001001010000 3
b11101 4
#655000
0#
0,
#660000
1#
0)
1,
02
b11110101110100101100001001010000 R
#662000
b10110 %
b11101 &
b11011100000111011001110000000110 '
b11110101110100101100001001010000 (
b10110 .
b11101 /
b11011100000111011001110000000110 0
b11110101110100101100001001010000 1
#663000
1)
b00011000001000010110010111000100 *
b01100 +
12
b00011000001000010110010111000100 3
b01100 4
#665000
0#
0,
#670000
1#
0)
1,
02
b00011000001000010110010111000100 A
#672000
b10011 %
b11001 &
b01010010100010100010111001000111 '
b11000110101101110001100000010011 (
b10011 .
b11001 /
b01010010100010100010111001000111 0
b11000110101101110001100000010011 1
#673000
1)
b10111110111110011100001011111110 *
b10000 +
12
b10111110111110011100001011111110 3
b10000 4
#675000
0#
0,
#680000
1#
0)
1,
02
b10111110111110011100001011111110 E
#682000
b00001 %
b01010 &
b10111000100110001010001001011011 '
b11110001111011010100101011111010 (
b00001 .
b01010 /
b10111000100110001010001001011011 0
b11110001111011010100101011111010 1
#683000
1)
b01011001001011110110011111110111 *
b01010 +
12
b01011001001011110110011111110111 3
b01010 4
#685000
0#
0,
#690000
1#
b01011001001011110110011111110111 (
0)
1,
b01011001001011110110011111110111 1
02
b01011001001011110110011111110111 ?
#692000
b10111 %
b10011 &
b10011101011101010110111100101010 '
b01010010100010100010111001000111 (
b10111 .
b10011 /
b10011101011101010110111100101010 0
b01010010100010100010111001000111 1
#693000
1)
b00100111000111110110111001110000 *
b00111 +
12
b00100111000111110110111001110000 3
b00111 4
#695000
0#
0,
#700000
1#
0)
1,
02
b00100111000111110110111001110000 <
#702000
b01100 %
b10010 &
b00011000001000010110010111000100 '
b00000000000000000000000000000000 (
b01100 .
b10010 /
b00011000001000010110010111000100 0
b00000000000000000000000000000000 1
#703000
1)
b00100000111001000111110111000010 *
b01110 +
12
b00100000111001000111110111000010 3
b01110 4
#705000
0#
0,
#710000
1#
0)
1,
02
b00100000111001000111110111000010 C
#712000
b11110 %
b10000 &
b00101110110001001001101111000110 '
b10111110111110011100001011111110 (
b11110 .
b10000 /
b00101110110001001001101111000110 0
b10111110111110011100001011111110 1
#713000
1)
b10111001000010011101101001001100 *
b00111 +
12
b10111001000010011101101001001100 3
b00111 4
#715000
0#
0,
#720000
1#
0)
1,
02
b10111001000010011101101001001100 <
#722000
b00101 %
b11110 &
b00100001011001010101011000001011 '
b00101110110001001001101111000110 (
b00101 .
b11110 /
b00100001011001010101011000001011 0
b00101110110001001001101111000110 1
#723000
1)
b00001100010011100110110101100000 *
b00001 +
12
b00001100010011100110110101100000 3
b00001 4
#725000
0#
0,
#730000
1#
0)
1,
02
b00001100010011100110110101100000 6
#732000
b11110 %
b00100 &
b00101110110001001001101111000110 '
b00001111110101100110110011001010 (
b11110 .
b00100 /
b00101110110001001001101111000110 0
b00001111110101100110110011001010 1
#733000
1)
b01111101011111000101010111011101 *
12
b01111101011111000101010111011101 3
#735000
0#
0,
#740000
1#
0)
1,
02
b01111101011111000101010111011101 6
#742000
b11111 %
b01000 &
b11100001001101110001111101100011 '
b00100000101010101011110001010011 (
b11111 .
b01000 /
b11100001001101110001111101100011 0
b00100000101010101011110001010011 1
#743000
1)
b00110000101110111100110111001010 *
b10100 +
12
b00110000101110111100110111001010 3
b10100 4
#745000
0#
0,
#750000
1#
0)
1,
02
b00110000101110111100110111001010 I
#752000
b11010 %
b10110 &
b11001101100000001100100010101101 '
b11011100000111011001110000000110 (
b11010 .
b10110 /
b11001101100000001100100010101101 0
b11011100000111011001110000000110 1
#753000
1)
b00100010110101010101011000000001 *
b01100 +
12
b00100010110101010101011000000001 3
b01100 4
#755000
0#
0,
#760000
1#
0)
1,
02
b00100010110101010101011000000001 A
#762000
b10111 %
b11001 &
b10011101011101010110111100101010 '
b11000110101101110001100000010011 (
b10111 .
b11001 /
b10011101011101010110111100101010 0
b11000110101101110001100000010011 1
#763000
1)
b10000000110000101010001110000011 *
b01110 +
12
b10000000110000101010001110000011 3
b01110 4
#765000
0#
0,
#770000
1#
0)
1,
02
b10000000110000101010001110000011 C
#772000
b00110 %
b10011 &
b11010000100100011000011110100001 '
b01010010100010100010111001000111 (
b00110 .
b10011 /
b11010000100100011000011110100001 0
b01010010100010100010111001000111 1
#773000
1)
b00001001111111010110101110010000 *
b10010 +
12
b00001001111111010110101110010000 3
b10010 4
#775000
0#
0,
#780000
1#
0)
1,
02
b00001001111111010110101110010000 G
#782000
b10000 %
b10010 &
b10111110111110011100001011111110 '
b00001001111111010110101110010000 (
b10000 .
b10010 /
b10111110111110011100001011111110 0
b00001001111111010110101110010000 1
#783000
1)
b10000100001101110010001110000001 *
b11011 +
12
b10000100001101110010001110000001 3
b11011 4
#785000
0#
0,
#790000
1#
0)
1,
02
b10000100001101110010001110000001 P
#792000
b11101 %
b11100 &
b11110101110100101100001001010000 '
b11001000111101000101001000111000 (
b11101 .
b11100 /
b11110101110100101100001001010000 0
b11001000111101000101001000111000 1
#793000
1)
b11000001010110001000000000011100 *
b00101 +
12
b11000001010110001000000000011100 3
b00101 4
#795000
0#
0,
#800000
1#
0)
1,
02
b11000001010110001000000000011100 :
