utype/tb/utype_cpu/dump.vcd
$version Generated by VerilatedVcd $end
$timescale 1ps $end
 $scope module $rootio $end
  $var wire 1 # clk $end
  $var wire 1 $ rst_n $end
 $upscope $end
 $scope module cpu $end
  $var wire 1 % clk $end
  $var wire 1 & rst_n $end
  $var wire 32 ' pc [31:0] $end
  $var wire 32 ( pc_next [31:0] $end
  $var wire 32 ) pc_target [31:0] $end
  $var wire 32 * pc_plus_four [31:0] $end
  $var wire 32 + pc_plus_second_add [31:0] $end
  $var wire 32 , instruction [31:0] $end
  $var wire 7 - op [6:0] $end
  $var wire 3 . f3 [2:0] $end
  $var wire 1 / alu_zero $end
  $var wire 3 0 alu_control [2:0] $end
  $var wire 3 1 imm_source [2:0] $end
  $var wire 1 2 mem_write $end
  $var wire 1 3 reg_write $end
  $var wire 1 4 alu_source $end
  $var wire 2 5 write_back_source [1:0] $end
  $var wire 1 6 pc_source $end
  $var wire 1 7 second_add_source $end
  $var wire 32 8 write_back_data [31:0] $end
  $var wire 5 9 source_reg1 [4:0] $end
  $var wire 5 : source_reg2 [4:0] $end
  $var wire 5 ; dest_reg [4:0] $end
  $var wire 32 < read_reg1 [31:0] $end
  $var wire 32 = read_reg2 [31:0] $end
  $var wire 25 > raw_imm [24:0] $end
  $var wire 32 ? immediate [31:0] $end
  $var wire 32 @ alu_result [31:0] $end
  $var wire 32 A alu_src2 [31:0] $end
  $var wire 32 B mem_read [31:0] $end
  $scope module alu_inst $end
   $var wire 3 C alu_control [2:0] $end
   $var wire 32 D src1 [31:0] $end
   $var wire 32 E src2 [31:0] $end
   $var wire 32 F alu_result [31:0] $end
   $var wire 1 G zero $end
  $upscope $end
  $scope module control_unit $end
   $var wire 7 H op [6:0] $end
   $var wire 3 I func3 [2:0] $end
   $var wire 7 J func7 [6:0] $end
   $var wire 1 K alu_zero $end
   $var wire 3 L alu_control [2:0] $end
   $var wire 3 M imm_source [2:0] $end
   $var wire 1 N mem_write $end
   $var wire 1 O reg_write $end
   $var wire 1 P alu_source $end
   $var wire 2 Q write_back_source [1:0] $end
   $var wire 1 R pc_source $end
   $var wire 1 S second_add_source $end
   $var wire 2 T alu_op [1:0] $end
   $var wire 1 U branch $end
   $var wire 1 V jump $end
  $upscope $end
  $scope module data_memory $end
   $var wire 32 4! WORDS [31:0] $end
   $var wire 144 5! mem_init [143:0] $end
   $var wire 1 W clk $end
   $var wire 32 X address [31:0] $end
   $var wire 32 Y write_data [31:0] $end
   $var wire 1 Z write_enable $end
   $var wire 1 [ rst_n $end
   $var wire 32 \ read_data [31:0] $end
   $scope module unnamedblk1 $end
    $var wire 32 ] i [31:0] $end
   $upscope $end
  $upscope $end
  $scope module instruction_memory $end
   $var wire 32 4! WORDS [31:0] $end
   $var wire 144 :! mem_init [143:0] $end
   $var wire 1 ^ clk $end
   $var wire 32 _ address [31:0] $end
   $var wire 32 ` write_data [31:0] $end
   $var wire 1 a write_enable $end
   $var wire 1 b rst_n $end
   $var wire 32 c read_data [31:0] $end
   $scope module unnamedblk1 $end
    $var wire 32 d i [31:0] $end
   $upscope $end
  $upscope $end
  $scope module regfile $end
   $var wire 1 e clk $end
   $var wire 1 f rst_n $end
   $var wire 5 g address1 [4:0] $end
   $var wire 5 h address2 [4:0] $end
   $var wire 32 i read_data1 [31:0] $end
   $var wire 32 j read_data2 [31:0] $end
   $var wire 1 k write_enable $end
   $var wire 32 l write_data [31:0] $end
   $var wire 5 m address3 [4:0] $end
   $var wire 32 n registers[0] [31:0] $end
   $var wire 32 o registers[1] [31:0] $end
   $var wire 32 p registers[2] [31:0] $end
   $var wire 32 q registers[3] [31:0] $end
   $var wire 32 r registers[4] [31:0] $end
   $var wire 32 s registers[5] [31:0] $end
   $var wire 32 t registers[6] [31:0] $end
   $var wire 32 u registers[7] [31:0] $end
   $var wire 32 v registers[8] [31:0] $end
   $var wire 32 w registers[9] [31:0] $end
   $var wire 32 x registers[10] [31:0] $end
   $var wire 32 y registers[11] [31:0] $end
   $var wire 32 z registers[12] [31:0] $end
   $var wire 32 { registers[13] [31:0] $end
   $var wire 32 | registers[14] [31:0] $end
   $var wire 32 } registers[15] [31:0] $end
   $var wire 32 ~ registers[16] [31:0] $end
   $var wire 32 !! registers[17] [31:0] $end
   $var wire 32 "! registers[18] [31:0] $end
   $var wire 32 #! registers[19] [31:0] $end
   $var wire 32 $! registers[20] [31:0] $end
   $var wire 32 %! registers[21] [31:0] $end
   $var wire 32 &! registers[22] [31:0] $end
   $var wire 32 '! registers[23] [31:0] $end
   $var wire 32 (! registers[24] [31:0] $end
   $var wire 32 )! registers[25] [31:0] $end
   $var wire 32 *! registers[26] [31:0] $end
   $var wire 32 +! registers[27] [31:0] $end
   $var wire 32 ,! registers[28] [31:0] $end
   $var wire 32 -! registers[29] [31:0] $end
   $var wire 32 .! registers[30] [31:0] $end
   $var wire 32 /! registers[31] [31:0] $end
   $scope module unnamedblk1 $end
    $var wire 32 0! i [31:0] $end
   $upscope $end
  $upscope $end
  $scope module sign_extender $end
   $var wire 25 1! raw_src [24:0] $end
   $var wire 3 2! imm_source [2:0] $end
   $var wire 32 3! immediate [31:0] $end
  $upscope $end
 $upscope $end
$enddefinitions $end


#0
1#
0$
1%
0&
b00000000000000000000000000000000 '
b00000000000000000000000000000100 (
b00000000000000000000000000001000 )
b00000000000000000000000000000100 *
b00000000000000000000000000001000 +
b00000000100000000010100100000011 ,
b0000011 -
b010 .
0/
b000 0
b000 1
02
13
14
b01 5
06
07
b11011110101011011011111011101111 8
b00000 9
b01000 :
b10010 ;
b00000000000000000000000000000000 <
b00000000000000000000000000000000 =
b0000000010000000001010010 >
b00000000000000000000000000001000 ?
b00000000000000000000000000001000 @
b00000000000000000000000000001000 A
b11011110101011011011111011101111 B
b000 C
b00000000000000000000000000000000 D
b00000000000000000000000000001000 E
b00000000000000000000000000001000 F
0G
b0000011 H
b010 I
b0000000 J
0K
b000 L
b000 M
0N
1O
1P
b01 Q
0R
0S
b00 T
0U
0V
1W
b00000000000000000000000000000010 X
b00000000000000000000000000000000 Y
0Z
1[
b11011110101011011011111011101111 \
b00000000000000000000000000000000 ]
1^
b00000000000000000000000000000000 _
b00000000000000000000000000000000 `
0a
1b
b00000000100000000010100100000011 c
b00000000000000000000000000000000 d
1e
0f
b00000 g
b01000 h
b00000000000000000000000000000000 i
b00000000000000000000000000000000 j
1k
b11011110101011011011111011101111 l
b10010 m
b00000000000000000000000000000000 n
b00000000000000000000000000000000 o
b00000000000000000000000000000000 p
b00000000000000000000000000000000 q
b00000000000000000000000000000000 r
b00000000000000000000000000000000 s
b00000000000000000000000000000000 t
b00000000000000000000000000000000 u
b00000000000000000000000000000000 v
b00000000000000000000000000000000 w
b00000000000000000000000000000000 x
b00000000000000000000000000000000 y
b00000000000000000000000000000000 z
b00000000000000000000000000000000 {
b00000000000000000000000000000000 |
b00000000000000000000000000000000 }
b00000000000000000000000000000000 ~
b00000000000000000000000000000000 !!
b00000000000000000000000000000000 "!
b00000000000000000000000000000000 #!
b00000000000000000000000000000000 $!
b00000000000000000000000000000000 %!
b00000000000000000000000000000000 &!
b00000000000000000000000000000000 '!
b00000000000000000000000000000000 (!
b00000000000000000000000000000000 )!
b00000000000000000000000000000000 *!
b00000000000000000000000000000000 +!
b00000000000000000000000000000000 ,!
b00000000000000000000000000000000 -!
b00000000000000000000000000000000 .!
b00000000000000000000000000000000 /!
b00000000000000000000000000100000 0!
b0000000010000000001010010 1!
b000 2!
b00000000000000000000000000001000 3!
b00000000000000000000000001000000 4!
b001011100010111101110100011001010111001101110100010111110110010001101101011001010110110101101111011100100111100100101110011010000110010101111000 5!
b001011100010111101110100011001010111001101110100010111110110100101101101011001010110110101101111011100100111100100101110011010000110010101111000 :!
#500
0#
0%
0W
0^
0e
#1000
1#
1$
1%
1&
1W
1^
1e
1f
#1500
0#
0%
0W
0^
0e
#2000
1#
1%
b00000000000000000000000000000100 '
b00000000000000000000000000001000 (
b00000000000000000000000000010000 )
b00000000000000000000000000001000 *
b00000000000000000000000000010000 +
b00000001001000000010011000100011 ,
b0100011 -
b001 1
12
03
b00 5
b00000000000000000000000000001100 8
b10010 :
b01100 ;
b11011110101011011011111011101111 =
b0000000100100000001001100 >
b00000000000000000000000000001100 ?
b00000000000000000000000000001100 @
b00000000000000000000000000001100 A
b11110010111100101111001011110010 B
b00000000000000000000000000001100 E
b00000000000000000000000000001100 F
b0100011 H
b001 M
1N
0O
b00 Q
1W
b00000000000000000000000000000011 X
b11011110101011011011111011101111 Y
1Z
b11110010111100101111001011110010 \
1^
b00000000000000000000000000000001 _
b00000001001000000010011000100011 c
1e
b10010 h
b11011110101011011011111011101111 j
0k
b00000000000000000000000000001100 l
b01100 m
b11011110101011011011111011101111 "!
b0000000100100000001001100 1!
b001 2!
b00000000000000000000000000001100 3!
#2500
0#
0%
0W
0^
0e
#3000
1#
1%
b00000000000000000000000000001000 '
b00000000000000000000000000001100 (
b00000000000000000000000000011000 )
b00000000000000000000000000001100 *
b00000000000000000000000000011000 +
b00000001000000000010100110000011 ,
b0000011 -
b000 1
02
13
b01 5
b00000000000000000000101010101010 8
b10000 :
b10011 ;
b00000000000000000000000000000000 =
b0000000100000000001010011 >
b00000000000000000000000000010000 ?
b00000000000000000000000000010000 @
b00000000000000000000000000010000 A
b00000000000000000000101010101010 B
b00000000000000000000000000010000 E
b00000000000000000000000000010000 F
b0000011 H
b000 M
0N
1O
b01 Q
1W
b00000000000000000000000000000100 X
b00000000000000000000000000000000 Y
0Z
b00000000000000000000101010101010 \
1^
b00000000000000000000000000000010 _
b00000001000000000010100110000011 c
1e
b10000 h
b00000000000000000000000000000000 j
1k
b00000000000000000000101010101010 l
b10011 m
b0000000100000000001010011 1!
b000 2!
b00000000000000000000000000010000 3!
#3500
0#
0%
0W
0^
0e
#4000
1#
1%
b00000000000000000000000000001100 '
b00000000000000000000000000010000 (
b00000000000000000000000000011111 )
b00000000000000000000000000010000 *
b00000000000000000000000000011111 +
b00000001001110010000101000110011 ,
b0110011 -
b000 .
04
b00 5
b11011110101011011100100110011001 8
b10010 9
b10011 :
b10100 ;
b11011110101011011011111011101111 <
b00000000000000000000101010101010 =
b0000000100111001000010100 >
b00000000000000000000000000010011 ?
b11011110101011011100100110011001 @
b00000000000000000000101010101010 A
b00000000000000000000000000000000 B
b11011110101011011011111011101111 D
b00000000000000000000101010101010 E
b11011110101011011100100110011001 F
b0110011 H
b000 I
0P
b00 Q
b10 T
1W
b00110111101010110111001001100110 X
b00000000000000000000101010101010 Y
b00000000000000000000000000000000 \
1^
b00000000000000000000000000000011 _
b00000001001110010000101000110011 c
1e
b10010 g
b10011 h
b11011110101011011011111011101111 i
b00000000000000000000101010101010 j
b11011110101011011100100110011001 l
b10100 m
b00000000000000000000101010101010 #!
b0000000100111001000010100 1!
b00000000000000000000000000010011 3!
#4500
0#
0%
0W
0^
0e
#5000
1#
1%
b00000000000000000000000000010000 '
b00000000000000000000000000010100 (
b00000000000000000000000000100100 )
b00000000000000000000000000010100 *
b00000000000000000000000000100100 +
b00000001010010010111101010110011 ,
b111 .
b010 0
b11011110101011011000100010001001 8
b10100 :
b10101 ;
b11011110101011011100100110011001 =
b0000000101001001011110101 >
b00000000000000000000000000010100 ?
b11011110101011011000100010001001 @
b11011110101011011100100110011001 A
b010 C
b11011110101011011100100110011001 E
b11011110101011011000100010001001 F
b111 I
b010 L
1W
b00110111101010110110001000100010 X
b11011110101011011100100110011001 Y
1^
b00000000000000000000000000000100 _
b00000001010010010111101010110011 c
1e
b10100 h
b11011110101011011100100110011001 j
b11011110101011011000100010001001 l
b10101 m
b11011110101011011100100110011001 $!
b0000000101001001011110101 1!
b00000000000000000000000000010100 3!
#5500
0#
0%
0W
0^
0e
#6000
1#
1%
b00000000000000000000000000010100 '
b00000000000000000000000000011000 (
b00000000000000000000000000101000 )
b00000000000000000000000000011000 *
b00000000000000000000000000101000 +
b00000001010000000010001010000011 ,
b0000011 -
b010 .
b000 0
14
b01 5
b00010010010111110101010100101101 8
b00000 9
b00101 ;
b00000000000000000000000000000000 <
b0000000101000000001000101 >
b00000000000000000000000000010100 @
b00000000000000000000000000010100 A
b00010010010111110101010100101101 B
b000 C
b00000000000000000000000000000000 D
b00000000000000000000000000010100 E
b00000000000000000000000000010100 F
b0000011 H
b010 I
b000 L
1P
b01 Q
b00 T
1W
b00000000000000000000000000000101 X
b00010010010111110101010100101101 \
1^
b00000000000000000000000000000101 _
b00000001010000000010001010000011 c
1e
b00000 g
b00000000000000000000000000000000 i
b00010010010111110101010100101101 l
b00101 m
b11011110101011011000100010001001 %!
b0000000101000000001000101 1!
#6500
0#
0%
0W
0^
0e
#7000
1#
1%
b00000000000000000000000000011000 '
b00000000000000000000000000011100 (
b00000000000000000000000000110000 )
b00000000000000000000000000011100 *
b00000000000000000000000000110000 +
b00000001100000000010001100000011 ,
b01111111010011111101010001101010 8
b11000 :
b00110 ;
b00000000000000000000000000000000 =
b0000000110000000001000110 >
b00000000000000000000000000011000 ?
b00000000000000000000000000011000 @
b00000000000000000000000000011000 A
b01111111010011111101010001101010 B
b00000000000000000000000000011000 E
b00000000000000000000000000011000 F
1W
b00000000000000000000000000000110 X
b00000000000000000000000000000000 Y
b01111111010011111101010001101010 \
1^
b00000000000000000000000000000110 _
b00000001100000000010001100000011 c
1e
b11000 h
b00000000000000000000000000000000 j
b01111111010011111101010001101010 l
b00110 m
b00010010010111110101010100101101 s
b0000000110000000001000110 1!
b00000000000000000000000000011000 3!
#7500
0#
0%
0W
0^
0e
#8000
1#
1%
b00000000000000000000000000011100 '
b00000000000000000000000000100000 (
b00000000000000000000000000100010 )
b00000000000000000000000000100000 *
b00000000000000000000000000100010 +
b00000000011000101110001110110011 ,
b0110011 -
b110 .
b011 0
04
b00 5
b01111111010111111101010101101111 8
b00101 9
b00110 :
b00111 ;
b00010010010111110101010100101101 <
b01111111010011111101010001101010 =
b0000000001100010111000111 >
b00000000000000000000000000000110 ?
b01111111010111111101010101101111 @
b01111111010011111101010001101010 A
b00000000000000000000000000000000 B
b011 C
b00010010010111110101010100101101 D
b01111111010011111101010001101010 E
b01111111010111111101010101101111 F
b0110011 H
b110 I
b011 L
0P
b00 Q
b10 T
1W
b00011111110101111111010101011011 X
b01111111010011111101010001101010 Y
b00000000000000000000000000000000 \
1^
b00000000000000000000000000000111 _
b00000000011000101110001110110011 c
1e
b00101 g
b00110 h
b00010010010111110101010100101101 i
b01111111010011111101010001101010 j
b01111111010111111101010101101111 l
b00111 m
b01111111010011111101010001101010 t
b0000000001100010111000111 1!
b00000000000000000000000000000110 3!
#8500
0#
0%
0W
0^
0e
#9000
1#
1%
b00000000000000000000000000100000 '
b00000000000000000000000000100100 (
b00000000000000000000000000101100 )
b00000000000000000000000000100100 *
b00000000000000000000000000101100 +
b00000000011100110000011001100011 ,
b1100011 -
b000 .
b001 0
b010 1
03
b11111111111011111111111011111011 8
b00110 9
b00111 :
b01100 ;
b01111111010011111101010001101010 <
b01111111010111111101010101101111 =
b0000000001110011000001100 >
b00000000000000000000000000001100 ?
b11111111111011111111111011111011 @
b01111111010111111101010101101111 A
b001 C
b01111111010011111101010001101010 D
b01111111010111111101010101101111 E
b11111111111011111111111011111011 F
b1100011 H
b000 I
b001 L
b010 M
0O
b01 T
1U
1W
b00111111111110111111111110111110 X
b01111111010111111101010101101111 Y
1^
b00000000000000000000000000001000 _
b00000000011100110000011001100011 c
1e
b00110 g
b00111 h
b01111111010011111101010001101010 i
b01111111010111111101010101101111 j
0k
b11111111111011111111111011111011 l
b01100 m
b01111111010111111101010101101111 u
b0000000001110011000001100 1!
b010 2!
b00000000000000000000000000001100 3!
#9500
0#
0%
0W
0^
0e
#10000
1#
1%
b00000000000000000000000000100100 '
b00000000000000000000000000101000 (
b00000000000000000000000000101000 *
b00000000100000000010101100000011 ,
b0000011 -
b010 .
b000 0
b000 1
13
14
b01 5
b11011110101011011011111011101111 8
b00000 9
b01000 :
b10110 ;
b00000000000000000000000000000000 <
b00000000000000000000000000000000 =
b0000000010000000001010110 >
b00000000000000000000000000001000 ?
b00000000000000000000000000001000 @
b00000000000000000000000000001000 A
b11011110101011011011111011101111 B
b000 C
b00000000000000000000000000000000 D
b00000000000000000000000000001000 E
b00000000000000000000000000001000 F
b0000011 H
b010 I
b000 L
b000 M
1O
1P
b01 Q
b00 T
0U
1W
b00000000000000000000000000000010 X
b00000000000000000000000000000000 Y
b11011110101011011011111011101111 \
1^
b00000000000000000000000000001001 _
b00000000100000000010101100000011 c
1e
b00000 g
b01000 h
b00000000000000000000000000000000 i
b00000000000000000000000000000000 j
1k
b11011110101011011011111011101111 l
b10110 m
b0000000010000000001010110 1!
b000 2!
b00000000000000000000000000001000 3!
#10500
0#
0%
0W
0^
0e
#11000
1#
1%
b00000000000000000000000000101000 '
b00000000000000000000000000111000 (
b00000000000000000000000000111000 )
b00000000000000000000000000101100 *
b00000000000000000000000000111000 +
b00000001011010010000100001100011 ,
b1100011 -
b000 .
1/
b001 0
b010 1
03
04
b00 5
16
b00000000000000000000000000000000 8
b10010 9
b10110 :
b10000 ;
b11011110101011011011111011101111 <
b11011110101011011011111011101111 =
b0000000101101001000010000 >
b00000000000000000000000000010000 ?
b00000000000000000000000000000000 @
b11011110101011011011111011101111 A
b10101110101011101010111010101110 B
b001 C
b11011110101011011011111011101111 D
b11011110101011011011111011101111 E
b00000000000000000000000000000000 F
1G
b1100011 H
b000 I
1K
b001 L
b010 M
0O
0P
b00 Q
1R
b01 T
1U
1W
b00000000000000000000000000000000 X
b11011110101011011011111011101111 Y
b10101110101011101010111010101110 \
1^
b00000000000000000000000000001010 _
b00000001011010010000100001100011 c
1e
b10010 g
b10110 h
b11011110101011011011111011101111 i
b11011110101011011011111011101111 j
0k
b00000000000000000000000000000000 l
b10000 m
b11011110101011011011111011101111 &!
b0000000101101001000010000 1!
b010 2!
b00000000000000000000000000010000 3!
#11500
0#
0%
0W
0^
0e
#12000
1#
1%
b00000000000000000000000000111000 '
b00000000000000000000000000111100 (
b00000000000000000000000000111100 *
b00000000000000000010101100000011 ,
b0000011 -
b010 .
b000 0
b000 1
13
14
b01 5
06
b10101110101011101010111010101110 8
b00000 9
b00000 :
b10110 ;
b00000000000000000000000000000000 <
b00000000000000000000000000000000 =
b0000000000000000001010110 >
b00000000000000000000000000000000 ?
b00000000000000000000000000000000 A
b000 C
b00000000000000000000000000000000 D
b00000000000000000000000000000000 E
b0000011 H
b010 I
b000 L
b000 M
1O
1P
b01 Q
0R
b00 T
0U
1W
b00000000000000000000000000000000 Y
1^
b00000000000000000000000000001110 _
b00000000000000000010101100000011 c
1e
b00000 g
b00000 h
b00000000000000000000000000000000 i
b00000000000000000000000000000000 j
1k
b10101110101011101010111010101110 l
b10110 m
b0000000000000000001010110 1!
b000 2!
b00000000000000000000000000000000 3!
#12500
0#
0%
0W
0^
0e
#13000
1#
1%
b00000000000000000000000000111100 '
b00000000000000000000000000110100 (
b00000000000000000000000000110100 )
b00000000000000000000000001000000 *
b00000000000000000000000000110100 +
b11111111011010110000110011100011 ,
b1100011 -
b000 .
b001 0
b010 1
03
04
b00 5
16
b00000000000000000000000000000000 8
b10110 9
b10110 :
b11001 ;
b10101110101011101010111010101110 <
b10101110101011101010111010101110 =
b1111111101101011000011001 >
b11111111111111111111111111111000 ?
b10101110101011101010111010101110 A
b001 C
b10101110101011101010111010101110 D
b10101110101011101010111010101110 E
b1100011 H
b000 I
b001 L
b010 M
0O
0P
b00 Q
1R
b01 T
1U
1W
b10101110101011101010111010101110 Y
1^
b00000000000000000000000000001111 _
b11111111011010110000110011100011 c
1e
b10110 g
b10110 h
b10101110101011101010111010101110 i
b10101110101011101010111010101110 j
0k
b00000000000000000000000000000000 l
b11001 m
b10101110101011101010111010101110 &!
b1111111101101011000011001 1!
b010 2!
b11111111111111111111111111111000 3!
#13500
0#
0%
0W
0^
0e
#14000
1#
1%
b00000000000000000000000000110100 '
b00000000000000000000000001000000 (
b00000000000000000000000001000000 )
b00000000000000000000000000111000 *
b00000000000000000000000001000000 +
b00000000000000000000011001100011 ,
b00000 9
b00000 :
b01100 ;
b00000000000000000000000000000000 <
b00000000000000000000000000000000 =
b0000000000000000000001100 >
b00000000000000000000000000001100 ?
b00000000000000000000000000000000 A
b00000000000000000000000000000000 D
b00000000000000000000000000000000 E
1W
b00000000000000000000000000000000 Y
1^
b00000000000000000000000000001101 _
b00000000000000000000011001100011 c
1e
b00000 g
b00000 h
b00000000000000000000000000000000 i
b00000000000000000000000000000000 j
b01100 m
b0000000000000000000001100 1!
b00000000000000000000000000001100 3!
#14500
0#
0%
0W
0^
0e
#15000
1#
1%
b00000000000000000000000001000000 '
b00000000000000000000000001000100 (
b00000000000000000000000001000100 *
b00000000000000000000000000010011 ,
b0010011 -
b000 0
b000 1
13
14
06
b00000 ;
b0000000000000000000000000 >
b00000000000000000000000000000000 ?
b000 C
b0010011 H
b000 L
b000 M
1O
1P
0R
b10 T
0U
1W
1^
b00000000000000000000000000010000 _
b00000000000000000000000000010011 c
1e
1k
b00000 m
b0000000000000000000000000 1!
b000 2!
b00000000000000000000000000000000 3!
#15500
0#
0%
0W
0^
0e
#16000
1#
1%
b00000000000000000000000001000100 '
b00000000000000000000000001010000 (
b00000000000000000000000001010000 )
b00000000000000000000000001001000 *
b00000000000000000000000001010000 +
b00000000110000000000000011101111 ,
b1101111 -
b011 1
04
b10 5
16
b00000000000000000000000001001000 8
b01100 :
b00001 ;
b0000000011000000000000001 >
b00000000000000000000000000001100 ?
b1101111 H
b011 M
0P
b10 Q
1R
b00 T
1V
1W
1^
b00000000000000000000000000010001 _
b00000000110000000000000011101111 c
1e
b01100 h
b00000000000000000000000001001000 l
b00001 m
b0000000011000000000000001 1!
b011 2!
b00000000000000000000000000001100 3!
#16500
0#
0%
0W
0^
0e
#17000
1#
1%
b00000000000000000000000001010000 '
b00000000000000000000000001001100 (
b00000000000000000000000001001100 )
b00000000000000000000000001010100 *
b00000000000000000000000001001100 +
b11111111110111111111000011101111 ,
b111 .
b00000000000000000000000001010100 8
b11111 9
b11101 :
b1111111111011111111100001 >
b11111111111111111111111111111100 ?
b111 I
1W
1^
b00000000000000000000000000010100 _
b11111111110111111111000011101111 c
1e
b11111 g
b11101 h
b00000000000000000000000001010100 l
b00000000000000000000000001001000 o
b1111111111011111111100001 1!
b11111111111111111111111111111100 3!
#17500
0#
0%
0W
0^
0e
#18000
1#
1%
b00000000000000000000000001001100 '
b00000000000000000000000001011000 (
b00000000000000000000000001011000 )
b00000000000000000000000001010000 *
b00000000000000000000000001011000 +
b00000000110000000000000011101111 ,
b000 .
b00000000000000000000000001010000 8
b00000 9
b01100 :
b0000000011000000000000001 >
b00000000000000000000000000001100 ?
b000 I
1W
1^
b00000000000000000000000000010011 _
b00000000110000000000000011101111 c
1e
b00000 g
b01100 h
b00000000000000000000000001010000 l
b00000000000000000000000001010100 o
b0000000011000000000000001 1!
b00000000000000000000000000001100 3!
#18500
0#
0%
0W
0^
0e
#19000
1#
1%
b00000000000000000000000001011000 '
b00000000000000000000000001011100 (
b00000000000000000000000001100100 )
b00000000000000000000000001011100 *
b00000000000000000000000001100100 +
b00000000110000000010001110000011 ,
b0000011 -
b010 .
0/
b000 1
14
b01 5
06
b11011110101011011011111011101111 8
b00111 ;
b0000000011000000001000111 >
b00000000000000000000000000001100 @
b00000000000000000000000000001100 A
b11011110101011011011111011101111 B
b00000000000000000000000000001100 E
b00000000000000000000000000001100 F
0G
b0000011 H
b010 I
0K
b000 M
1P
b01 Q
0R
0V
1W
b00000000000000000000000000000011 X
b11011110101011011011111011101111 \
1^
b00000000000000000000000000010110 _
b00000000110000000010001110000011 c
1e
b11011110101011011011111011101111 l
b00111 m
b00000000000000000000000001010000 o
b0000000011000000001000111 1!
b000 2!
#19500
0#
0%
0W
0^
0e
#20000
1#
1%
b00000000000000000000000001011100 '
b00000000000000000000000001100000 (
b00000000000000000000001000000111 )
b00000000000000000000000001100000 *
b00000000000000000000001000000111 +
b00011010101100111000110100010011 ,
b0010011 -
b000 .
b00 5
b11011110101011011100000010011010 8
b00111 9
b01011 :
b11010 ;
b11011110101011011011111011101111 <
b0001101010110011100011010 >
b00000000000000000000000110101011 ?
b11011110101011011100000010011010 @
b00000000000000000000000110101011 A
b00000000000000000000000000000000 B
b11011110101011011011111011101111 D
b00000000000000000000000110101011 E
b11011110101011011100000010011010 F
b0010011 H
b000 I
b00 Q
b10 T
1W
b00110111101010110111000000100110 X
b00000000000000000000000000000000 \
1^
b00000000000000000000000000010111 _
b00011010101100111000110100010011 c
1e
b00111 g
b01011 h
b11011110101011011011111011101111 i
b11011110101011011100000010011010 l
b11010 m
b11011110101011011011111011101111 u
b0001101010110011100011010 1!
b00000000000000000000000110101011 3!
#20500
0#
0%
0W
0^
0e
#21000
1#
1%
b00000000000000000000000001100000 '
b00000000000000000000000001100100 (
b11111111111111111111111110000001 )
b00000000000000000000000001100100 *
b11111111111111111111111110000001 +
b11110010000100110000110010010011 ,
b01111111010011111101001110001011 8
b00110 9
b00001 :
b11001 ;
b01111111010011111101010001101010 <
b00000000000000000000000001010000 =
b1111001000010011000011001 >
b11111111111111111111111100100001 ?
b01111111010011111101001110001011 @
b11111111111111111111111100100001 A
b01111111010011111101010001101010 D
b11111111111111111111111100100001 E
b01111111010011111101001110001011 F
1W
b00011111110100111111010011100010 X
b00000000000000000000000001010000 Y
1^
b00000000000000000000000000011000 _
b11110010000100110000110010010011 c
1e
b00110 g
b00001 h
b01111111010011111101010001101010 i
b00000000000000000000000001010000 j
b01111111010011111101001110001011 l
b11001 m
b11011110101011011100000010011010 *!
b1111001000010011000011001 1!
b11111111111111111111111100100001 3!
#21500
0#
0%
0W
0^
0e
#22000
1#
1%
b00000000000000000000000001100100 '
b00000000000000000000000001101000 (
b00011111000111111010000001100100 )
b00000000000000000000000001101000 *
b00011111000111111010000001100100 +
b00011111000111111010001010010111 ,
b0010111 -
b010 .
1/
b100 1
04
b11 5
b00011111000111111010000001100100 8
b11111 9
b10001 :
b00101 ;
b00000000000000000000000000000000 <
b00000000000000000000000000000000 =
b0001111100011111101000101 >
b00011111000111111010000000000000 ?
b00000000000000000000000000000000 @
b00000000000000000000000000000000 A
b10101110101011101010111010101110 B
b00000000000000000000000000000000 D
b00000000000000000000000000000000 E
b00000000000000000000000000000000 F
1G
b0010111 H
b010 I
1K
b100 M
0P
b11 Q
b00 T
1W
b00000000000000000000000000000000 X
b00000000000000000000000000000000 Y
b10101110101011101010111010101110 \
1^
b00000000000000000000000000011001 _
b00011111000111111010001010010111 c
1e
b11111 g
b10001 h
b00000000000000000000000000000000 i
b00000000000000000000000000000000 j
b00011111000111111010000001100100 l
b00101 m
b01111111010011111101001110001011 )!
b0001111100011111101000101 1!
b100 2!
b00011111000111111010000000000000 3!
#22500
0#
0%
0W
0^
0e
#23000
1#
1%
b00000000000000000000000001101000 '
b00000000000000000000000001101100 (
b00101111001011111010000001101000 )
b00000000000000000000000001101100 *
b00101111001011111010000000000000 +
b00101111001011111010001010110111 ,
b0110111 -
0/
17
b00101111001011111010000000000000 8
b10010 :
b11011110101011011011111011101111 =
b0010111100101111101000101 >
b00101111001011111010000000000000 ?
b11011110101011011011111011101111 @
b11011110101011011011111011101111 A
b00000000000000000000000000000000 B
b11011110101011011011111011101111 E
b11011110101011011011111011101111 F
0G
b0110111 H
0K
1S
1W
b00110111101010110110111110111011 X
b11011110101011011011111011101111 Y
b00000000000000000000000000000000 \
1^
b00000000000000000000000000011010 _
b00101111001011111010001010110111 c
1e
b10010 h
b11011110101011011011111011101111 j
b00101111001011111010000000000000 l
b00011111000111111010000001100100 s
b0010111100101111101000101 1!
b00101111001011111010000000000000 3!
#23500
0#
0%
0W
0^
0e
#24000
1#
1%
b00000000000000000000000001101100 '
b00000000000000000000000001110000 (
b00000000000000000000000001101100 )
b00000000000000000000000001110000 *
b00000000000000000000000001101100 +
b00000000000000000000000000010011 ,
b0010011 -
b000 .
1/
b000 1
14
b00 5
07
b00000000000000000000000000000000 8
b00000 9
b00000 :
b00000 ;
b00000000000000000000000000000000 =
b0000000000000000000000000 >
b00000000000000000000000000000000 ?
b00000000000000000000000000000000 @
b00000000000000000000000000000000 A
b10101110101011101010111010101110 B
b00000000000000000000000000000000 E
b00000000000000000000000000000000 F
1G
b0010011 H
b000 I
1K
b000 M
1P
b00 Q
0S
b10 T
1W
b00000000000000000000000000000000 X
b00000000000000000000000000000000 Y
b10101110101011101010111010101110 \
1^
b00000000000000000000000000011011 _
b00000000000000000000000000010011 c
1e
b00000 g
b00000 h
b00000000000000000000000000000000 j
b00000000000000000000000000000000 l
b00000 m
b00101111001011111010000000000000 s
b0000000000000000000000000 1!
b000 2!
b00000000000000000000000000000000 3!
#24500
0#
0%
0W
0^
0e
#25000
1#
1%
b00000000000000000000000001110000 '
b00000000000000000000000001110100 (
b00000000000000000000000001110000 )
b00000000000000000000000001110100 *
b00000000000000000000000001110000 +
1W
1^
b00000000000000000000000000011100 _
1e
